# Test stochastic distribution: linear1
# LINEAR([2.0;8.0;asc])
# Coordinate count: 5000000
# Computation duration mean: 0.002334054329ms
#---
# x y
#---
# x=2.0 f(x)=11
2.0 11.0
# x=2.0100000000000002 f(x)=41
2.0100000000000002 41.0
# x=2.02 f(x)=65
2.02 65.0
# x=2.0300000000000002 f(x)=84
2.0300000000000002 84.0
# x=2.04 f(x)=120
2.04 120.0
# x=2.05 f(x)=148
2.05 148.0
# x=2.06 f(x)=174
2.06 174.0
# x=2.07 f(x)=190
2.07 190.0
# x=2.08 f(x)=245
2.08 245.0
# x=2.09 f(x)=221
2.09 221.0
# x=2.1 f(x)=297
2.1 297.0
# x=2.11 f(x)=346
2.11 346.0
# x=2.12 f(x)=346
2.12 346.0
# x=2.13 f(x)=404
2.13 404.0
# x=2.14 f(x)=410
2.14 410.0
# x=2.15 f(x)=424
2.15 424.0
# x=2.16 f(x)=412
2.16 412.0
# x=2.17 f(x)=485
2.17 485.0
# x=2.18 f(x)=505
2.18 505.0
# x=2.19 f(x)=530
2.19 530.0
# x=2.2 f(x)=588
2.2 588.0
# x=2.21 f(x)=554
2.21 554.0
# x=2.22 f(x)=658
2.22 658.0
# x=2.23 f(x)=670
2.23 670.0
# x=2.24 f(x)=639
2.24 639.0
# x=2.25 f(x)=758
2.25 758.0
# x=2.2600000000000002 f(x)=714
2.2600000000000002 714.0
# x=2.27 f(x)=750
2.27 750.0
# x=2.2800000000000002 f(x)=832
2.2800000000000002 832.0
# x=2.29 f(x)=841
2.29 841.0
# x=2.3000000000000003 f(x)=871
2.3000000000000003 871.0
# x=2.31 f(x)=872
2.31 872.0
# x=2.32 f(x)=910
2.32 910.0
# x=2.33 f(x)=920
2.33 920.0
# x=2.34 f(x)=949
2.34 949.0
# x=2.35 f(x)=984
2.35 984.0
# x=2.36 f(x)=978
2.36 978.0
# x=2.37 f(x)=1095
2.37 1095.0
# x=2.38 f(x)=1088
2.38 1088.0
# x=2.39 f(x)=1131
2.39 1131.0
# x=2.4 f(x)=1137
2.4 1137.0
# x=2.41 f(x)=1203
2.41 1203.0
# x=2.42 f(x)=1197
2.42 1197.0
# x=2.43 f(x)=1225
2.43 1225.0
# x=2.44 f(x)=1236
2.44 1236.0
# x=2.45 f(x)=1225
2.45 1225.0
# x=2.46 f(x)=1225
2.46 1225.0
# x=2.47 f(x)=1277
2.47 1277.0
# x=2.48 f(x)=1340
2.48 1340.0
# x=2.49 f(x)=1328
2.49 1328.0
# x=2.5 f(x)=1397
2.5 1397.0
# x=2.5100000000000002 f(x)=1408
2.5100000000000002 1408.0
# x=2.52 f(x)=1488
2.52 1488.0
# x=2.5300000000000002 f(x)=1522
2.5300000000000002 1522.0
# x=2.54 f(x)=1521
2.54 1521.0
# x=2.5500000000000003 f(x)=1537
2.5500000000000003 1537.0
# x=2.56 f(x)=1525
2.56 1525.0
# x=2.57 f(x)=1603
2.57 1603.0
# x=2.58 f(x)=1614
2.58 1614.0
# x=2.59 f(x)=1656
2.59 1656.0
# x=2.6 f(x)=1704
2.6 1704.0
# x=2.61 f(x)=1714
2.61 1714.0
# x=2.62 f(x)=1751
2.62 1751.0
# x=2.63 f(x)=1831
2.63 1831.0
# x=2.64 f(x)=1809
2.64 1809.0
# x=2.65 f(x)=1814
2.65 1814.0
# x=2.66 f(x)=1823
2.66 1823.0
# x=2.67 f(x)=1923
2.67 1923.0
# x=2.68 f(x)=1870
2.68 1870.0
# x=2.69 f(x)=1919
2.69 1919.0
# x=2.7 f(x)=1927
2.7 1927.0
# x=2.71 f(x)=1968
2.71 1968.0
# x=2.72 f(x)=2028
2.72 2028.0
# x=2.73 f(x)=2095
2.73 2095.0
# x=2.74 f(x)=2098
2.74 2098.0
# x=2.75 f(x)=2069
2.75 2069.0
# x=2.7600000000000002 f(x)=2151
2.7600000000000002 2151.0
# x=2.77 f(x)=2243
2.77 2243.0
# x=2.7800000000000002 f(x)=2145
2.7800000000000002 2145.0
# x=2.79 f(x)=2195
2.79 2195.0
# x=2.8000000000000003 f(x)=2204
2.8000000000000003 2204.0
# x=2.81 f(x)=2242
2.81 2242.0
# x=2.82 f(x)=2394
2.82 2394.0
# x=2.83 f(x)=2291
2.83 2291.0
# x=2.84 f(x)=2275
2.84 2275.0
# x=2.85 f(x)=2397
2.85 2397.0
# x=2.86 f(x)=2473
2.86 2473.0
# x=2.87 f(x)=2450
2.87 2450.0
# x=2.88 f(x)=2363
2.88 2363.0
# x=2.89 f(x)=2391
2.89 2391.0
# x=2.9 f(x)=2463
2.9 2463.0
# x=2.91 f(x)=2451
2.91 2451.0
# x=2.92 f(x)=2653
2.92 2653.0
# x=2.93 f(x)=2550
2.93 2550.0
# x=2.94 f(x)=2624
2.94 2624.0
# x=2.95 f(x)=2703
2.95 2703.0
# x=2.96 f(x)=2721
2.96 2721.0
# x=2.97 f(x)=2682
2.97 2682.0
# x=2.98 f(x)=2740
2.98 2740.0
# x=2.99 f(x)=2751
2.99 2751.0
# x=3.0 f(x)=2772
3.0 2772.0
# x=3.0100000000000002 f(x)=2848
3.0100000000000002 2848.0
# x=3.02 f(x)=2953
3.02 2953.0
# x=3.0300000000000002 f(x)=2811
3.0300000000000002 2811.0
# x=3.04 f(x)=2873
3.04 2873.0
# x=3.0500000000000003 f(x)=2996
3.0500000000000003 2996.0
# x=3.06 f(x)=2957
3.06 2957.0
# x=3.0700000000000003 f(x)=3057
3.0700000000000003 3057.0
# x=3.08 f(x)=3145
3.08 3145.0
# x=3.09 f(x)=3092
3.09 3092.0
# x=3.1 f(x)=3144
3.1 3144.0
# x=3.11 f(x)=3200
3.11 3200.0
# x=3.12 f(x)=3045
3.12 3045.0
# x=3.13 f(x)=3146
3.13 3146.0
# x=3.14 f(x)=3085
3.14 3085.0
# x=3.15 f(x)=3250
3.15 3250.0
# x=3.16 f(x)=3285
3.16 3285.0
# x=3.17 f(x)=3246
3.17 3246.0
# x=3.18 f(x)=3317
3.18 3317.0
# x=3.19 f(x)=3345
3.19 3345.0
# x=3.2 f(x)=3384
3.2 3384.0
# x=3.21 f(x)=3495
3.21 3495.0
# x=3.22 f(x)=3413
3.22 3413.0
# x=3.23 f(x)=3505
3.23 3505.0
# x=3.24 f(x)=3489
3.24 3489.0
# x=3.25 f(x)=3405
3.25 3405.0
# x=3.2600000000000002 f(x)=3537
3.2600000000000002 3537.0
# x=3.27 f(x)=3526
3.27 3526.0
# x=3.2800000000000002 f(x)=3501
3.2800000000000002 3501.0
# x=3.29 f(x)=3555
3.29 3555.0
# x=3.3000000000000003 f(x)=3703
3.3000000000000003 3703.0
# x=3.31 f(x)=3679
3.31 3679.0
# x=3.3200000000000003 f(x)=3601
3.3200000000000003 3601.0
# x=3.33 f(x)=3676
3.33 3676.0
# x=3.34 f(x)=3824
3.34 3824.0
# x=3.35 f(x)=3747
3.35 3747.0
# x=3.36 f(x)=3847
3.36 3847.0
# x=3.37 f(x)=3763
3.37 3763.0
# x=3.38 f(x)=3908
3.38 3908.0
# x=3.39 f(x)=3997
3.39 3997.0
# x=3.4 f(x)=3805
3.4 3805.0
# x=3.41 f(x)=3774
3.41 3774.0
# x=3.42 f(x)=3933
3.42 3933.0
# x=3.43 f(x)=4135
3.43 4135.0
# x=3.44 f(x)=4059
3.44 4059.0
# x=3.45 f(x)=4135
3.45 4135.0
# x=3.46 f(x)=4171
3.46 4171.0
# x=3.47 f(x)=4117
3.47 4117.0
# x=3.48 f(x)=4178
3.48 4178.0
# x=3.49 f(x)=4221
3.49 4221.0
# x=3.5 f(x)=4153
3.5 4153.0
# x=3.5100000000000002 f(x)=4216
3.5100000000000002 4216.0
# x=3.52 f(x)=4287
3.52 4287.0
# x=3.5300000000000002 f(x)=4370
3.5300000000000002 4370.0
# x=3.54 f(x)=4285
3.54 4285.0
# x=3.5500000000000003 f(x)=4417
3.5500000000000003 4417.0
# x=3.56 f(x)=4252
3.56 4252.0
# x=3.5700000000000003 f(x)=4316
3.5700000000000003 4316.0
# x=3.58 f(x)=4462
3.58 4462.0
# x=3.59 f(x)=4437
3.59 4437.0
# x=3.6 f(x)=4361
3.6 4361.0
# x=3.61 f(x)=4642
3.61 4642.0
# x=3.62 f(x)=4628
3.62 4628.0
# x=3.63 f(x)=4529
3.63 4529.0
# x=3.64 f(x)=4402
3.64 4402.0
# x=3.65 f(x)=4592
3.65 4592.0
# x=3.66 f(x)=4643
3.66 4643.0
# x=3.67 f(x)=4525
3.67 4525.0
# x=3.68 f(x)=4671
3.68 4671.0
# x=3.69 f(x)=4701
3.69 4701.0
# x=3.7 f(x)=4714
3.7 4714.0
# x=3.71 f(x)=4727
3.71 4727.0
# x=3.72 f(x)=4781
3.72 4781.0
# x=3.73 f(x)=4876
3.73 4876.0
# x=3.74 f(x)=4847
3.74 4847.0
# x=3.75 f(x)=4832
3.75 4832.0
# x=3.7600000000000002 f(x)=4956
3.7600000000000002 4956.0
# x=3.77 f(x)=4910
3.77 4910.0
# x=3.7800000000000002 f(x)=4911
3.7800000000000002 4911.0
# x=3.79 f(x)=4984
3.79 4984.0
# x=3.8000000000000003 f(x)=4845
3.8000000000000003 4845.0
# x=3.81 f(x)=5052
3.81 5052.0
# x=3.8200000000000003 f(x)=5160
3.8200000000000003 5160.0
# x=3.83 f(x)=5108
3.83 5108.0
# x=3.84 f(x)=5174
3.84 5174.0
# x=3.85 f(x)=5160
3.85 5160.0
# x=3.86 f(x)=5169
3.86 5169.0
# x=3.87 f(x)=5072
3.87 5072.0
# x=3.88 f(x)=5007
3.88 5007.0
# x=3.89 f(x)=5333
3.89 5333.0
# x=3.9 f(x)=5311
3.9 5311.0
# x=3.91 f(x)=5236
3.91 5236.0
# x=3.92 f(x)=5396
3.92 5396.0
# x=3.93 f(x)=5338
3.93 5338.0
# x=3.94 f(x)=5405
3.94 5405.0
# x=3.95 f(x)=5564
3.95 5564.0
# x=3.96 f(x)=5545
3.96 5545.0
# x=3.97 f(x)=5386
3.97 5386.0
# x=3.98 f(x)=5706
3.98 5706.0
# x=3.99 f(x)=5536
3.99 5536.0
# x=4.0 f(x)=5570
4.0 5570.0
# x=4.01 f(x)=5477
4.01 5477.0
# x=4.0200000000000005 f(x)=5546
4.0200000000000005 5546.0
# x=4.03 f(x)=5737
4.03 5737.0
# x=4.04 f(x)=5699
4.04 5699.0
# x=4.05 f(x)=5837
4.05 5837.0
# x=4.0600000000000005 f(x)=5740
4.0600000000000005 5740.0
# x=4.07 f(x)=5601
4.07 5601.0
# x=4.08 f(x)=5890
4.08 5890.0
# x=4.09 f(x)=5827
4.09 5827.0
# x=4.1 f(x)=5838
4.1 5838.0
# x=4.11 f(x)=5947
4.11 5947.0
# x=4.12 f(x)=5886
4.12 5886.0
# x=4.13 f(x)=5939
4.13 5939.0
# x=4.14 f(x)=5771
4.14 5771.0
# x=4.15 f(x)=6034
4.15 6034.0
# x=4.16 f(x)=5979
4.16 5979.0
# x=4.17 f(x)=5945
4.17 5945.0
# x=4.18 f(x)=6101
4.18 6101.0
# x=4.19 f(x)=5964
4.19 5964.0
# x=4.2 f(x)=6152
4.2 6152.0
# x=4.21 f(x)=5993
4.21 5993.0
# x=4.22 f(x)=6274
4.22 6274.0
# x=4.23 f(x)=6271
4.23 6271.0
# x=4.24 f(x)=6231
4.24 6231.0
# x=4.25 f(x)=6241
4.25 6241.0
# x=4.26 f(x)=6186
4.26 6186.0
# x=4.2700000000000005 f(x)=6316
4.2700000000000005 6316.0
# x=4.28 f(x)=6398
4.28 6398.0
# x=4.29 f(x)=6374
4.29 6374.0
# x=4.3 f(x)=6340
4.3 6340.0
# x=4.3100000000000005 f(x)=6413
4.3100000000000005 6413.0
# x=4.32 f(x)=6460
4.32 6460.0
# x=4.33 f(x)=6445
4.33 6445.0
# x=4.34 f(x)=6551
4.34 6551.0
# x=4.3500000000000005 f(x)=6421
4.3500000000000005 6421.0
# x=4.36 f(x)=6613
4.36 6613.0
# x=4.37 f(x)=6416
4.37 6416.0
# x=4.38 f(x)=6751
4.38 6751.0
# x=4.39 f(x)=6520
4.39 6520.0
# x=4.4 f(x)=6705
4.4 6705.0
# x=4.41 f(x)=6601
4.41 6601.0
# x=4.42 f(x)=6752
4.42 6752.0
# x=4.43 f(x)=6817
4.43 6817.0
# x=4.44 f(x)=6845
4.44 6845.0
# x=4.45 f(x)=6850
4.45 6850.0
# x=4.46 f(x)=6966
4.46 6966.0
# x=4.47 f(x)=6888
4.47 6888.0
# x=4.48 f(x)=6929
4.48 6929.0
# x=4.49 f(x)=7016
4.49 7016.0
# x=4.5 f(x)=7128
4.5 7128.0
# x=4.51 f(x)=6922
4.51 6922.0
# x=4.5200000000000005 f(x)=6938
4.5200000000000005 6938.0
# x=4.53 f(x)=6896
4.53 6896.0
# x=4.54 f(x)=6929
4.54 6929.0
# x=4.55 f(x)=7073
4.55 7073.0
# x=4.5600000000000005 f(x)=7110
4.5600000000000005 7110.0
# x=4.57 f(x)=7163
4.57 7163.0
# x=4.58 f(x)=7118
4.58 7118.0
# x=4.59 f(x)=7277
4.59 7277.0
# x=4.6000000000000005 f(x)=7174
4.6000000000000005 7174.0
# x=4.61 f(x)=7265
4.61 7265.0
# x=4.62 f(x)=7253
4.62 7253.0
# x=4.63 f(x)=7348
4.63 7348.0
# x=4.64 f(x)=7435
4.64 7435.0
# x=4.65 f(x)=7310
4.65 7310.0
# x=4.66 f(x)=7440
4.66 7440.0
# x=4.67 f(x)=7331
4.67 7331.0
# x=4.68 f(x)=7496
4.68 7496.0
# x=4.69 f(x)=7346
4.69 7346.0
# x=4.7 f(x)=7618
4.7 7618.0
# x=4.71 f(x)=7469
4.71 7469.0
# x=4.72 f(x)=7406
4.72 7406.0
# x=4.73 f(x)=7576
4.73 7576.0
# x=4.74 f(x)=7717
4.74 7717.0
# x=4.75 f(x)=7660
4.75 7660.0
# x=4.76 f(x)=7592
4.76 7592.0
# x=4.7700000000000005 f(x)=7702
4.7700000000000005 7702.0
# x=4.78 f(x)=7993
4.78 7993.0
# x=4.79 f(x)=7727
4.79 7727.0
# x=4.8 f(x)=7859
4.8 7859.0
# x=4.8100000000000005 f(x)=7839
4.8100000000000005 7839.0
# x=4.82 f(x)=7887
4.82 7887.0
# x=4.83 f(x)=7702
4.83 7702.0
# x=4.84 f(x)=7946
4.84 7946.0
# x=4.8500000000000005 f(x)=7884
4.8500000000000005 7884.0
# x=4.86 f(x)=7994
4.86 7994.0
# x=4.87 f(x)=7929
4.87 7929.0
# x=4.88 f(x)=8041
4.88 8041.0
# x=4.89 f(x)=8042
4.89 8042.0
# x=4.9 f(x)=7947
4.9 7947.0
# x=4.91 f(x)=8289
4.91 8289.0
# x=4.92 f(x)=7973
4.92 7973.0
# x=4.93 f(x)=8120
4.93 8120.0
# x=4.94 f(x)=8214
4.94 8214.0
# x=4.95 f(x)=8288
4.95 8288.0
# x=4.96 f(x)=8192
4.96 8192.0
# x=4.97 f(x)=8182
4.97 8182.0
# x=4.98 f(x)=8248
4.98 8248.0
# x=4.99 f(x)=8231
4.99 8231.0
# x=5.0 f(x)=8376
5.0 8376.0
# x=5.01 f(x)=8455
5.01 8455.0
# x=5.0200000000000005 f(x)=8406
5.0200000000000005 8406.0
# x=5.03 f(x)=8578
5.03 8578.0
# x=5.04 f(x)=8457
5.04 8457.0
# x=5.05 f(x)=8394
5.05 8394.0
# x=5.0600000000000005 f(x)=8472
5.0600000000000005 8472.0
# x=5.07 f(x)=8426
5.07 8426.0
# x=5.08 f(x)=8362
5.08 8362.0
# x=5.09 f(x)=8745
5.09 8745.0
# x=5.1000000000000005 f(x)=8552
5.1000000000000005 8552.0
# x=5.11 f(x)=8675
5.11 8675.0
# x=5.12 f(x)=8825
5.12 8825.0
# x=5.13 f(x)=8710
5.13 8710.0
# x=5.14 f(x)=8713
5.14 8713.0
# x=5.15 f(x)=8712
5.15 8712.0
# x=5.16 f(x)=9053
5.16 9053.0
# x=5.17 f(x)=8806
5.17 8806.0
# x=5.18 f(x)=8934
5.18 8934.0
# x=5.19 f(x)=8744
5.19 8744.0
# x=5.2 f(x)=8915
5.2 8915.0
# x=5.21 f(x)=8918
5.21 8918.0
# x=5.22 f(x)=8894
5.22 8894.0
# x=5.23 f(x)=9035
5.23 9035.0
# x=5.24 f(x)=9241
5.24 9241.0
# x=5.25 f(x)=9142
5.25 9142.0
# x=5.26 f(x)=9114
5.26 9114.0
# x=5.2700000000000005 f(x)=9096
5.2700000000000005 9096.0
# x=5.28 f(x)=9005
5.28 9005.0
# x=5.29 f(x)=9177
5.29 9177.0
# x=5.3 f(x)=9355
5.3 9355.0
# x=5.3100000000000005 f(x)=9196
5.3100000000000005 9196.0
# x=5.32 f(x)=9204
5.32 9204.0
# x=5.33 f(x)=9483
5.33 9483.0
# x=5.34 f(x)=9317
5.34 9317.0
# x=5.3500000000000005 f(x)=9350
5.3500000000000005 9350.0
# x=5.36 f(x)=9278
5.36 9278.0
# x=5.37 f(x)=9184
5.37 9184.0
# x=5.38 f(x)=9487
5.38 9487.0
# x=5.39 f(x)=9310
5.39 9310.0
# x=5.4 f(x)=9335
5.4 9335.0
# x=5.41 f(x)=9466
5.41 9466.0
# x=5.42 f(x)=9493
5.42 9493.0
# x=5.43 f(x)=9449
5.43 9449.0
# x=5.44 f(x)=9602
5.44 9602.0
# x=5.45 f(x)=9637
5.45 9637.0
# x=5.46 f(x)=9509
5.46 9509.0
# x=5.47 f(x)=9711
5.47 9711.0
# x=5.48 f(x)=9720
5.48 9720.0
# x=5.49 f(x)=9754
5.49 9754.0
# x=5.5 f(x)=9914
5.5 9914.0
# x=5.51 f(x)=9730
5.51 9730.0
# x=5.5200000000000005 f(x)=9865
5.5200000000000005 9865.0
# x=5.53 f(x)=9688
5.53 9688.0
# x=5.54 f(x)=9998
5.54 9998.0
# x=5.55 f(x)=9861
5.55 9861.0
# x=5.5600000000000005 f(x)=9757
5.5600000000000005 9757.0
# x=5.57 f(x)=9973
5.57 9973.0
# x=5.58 f(x)=10177
5.58 10177.0
# x=5.59 f(x)=10013
5.59 10013.0
# x=5.6000000000000005 f(x)=10165
5.6000000000000005 10165.0
# x=5.61 f(x)=9971
5.61 9971.0
# x=5.62 f(x)=10076
5.62 10076.0
# x=5.63 f(x)=10108
5.63 10108.0
# x=5.64 f(x)=10143
5.64 10143.0
# x=5.65 f(x)=9969
5.65 9969.0
# x=5.66 f(x)=10134
5.66 10134.0
# x=5.67 f(x)=10223
5.67 10223.0
# x=5.68 f(x)=10379
5.68 10379.0
# x=5.69 f(x)=10251
5.69 10251.0
# x=5.7 f(x)=10243
5.7 10243.0
# x=5.71 f(x)=10216
5.71 10216.0
# x=5.72 f(x)=10548
5.72 10548.0
# x=5.73 f(x)=10347
5.73 10347.0
# x=5.74 f(x)=10299
5.74 10299.0
# x=5.75 f(x)=10470
5.75 10470.0
# x=5.76 f(x)=10400
5.76 10400.0
# x=5.7700000000000005 f(x)=10531
5.7700000000000005 10531.0
# x=5.78 f(x)=10604
5.78 10604.0
# x=5.79 f(x)=10512
5.79 10512.0
# x=5.8 f(x)=10562
5.8 10562.0
# x=5.8100000000000005 f(x)=10560
5.8100000000000005 10560.0
# x=5.82 f(x)=10425
5.82 10425.0
# x=5.83 f(x)=10563
5.83 10563.0
# x=5.84 f(x)=10618
5.84 10618.0
# x=5.8500000000000005 f(x)=10741
5.8500000000000005 10741.0
# x=5.86 f(x)=10983
5.86 10983.0
# x=5.87 f(x)=10783
5.87 10783.0
# x=5.88 f(x)=10745
5.88 10745.0
# x=5.89 f(x)=10962
5.89 10962.0
# x=5.9 f(x)=10858
5.9 10858.0
# x=5.91 f(x)=10871
5.91 10871.0
# x=5.92 f(x)=10845
5.92 10845.0
# x=5.93 f(x)=10826
5.93 10826.0
# x=5.94 f(x)=10860
5.94 10860.0
# x=5.95 f(x)=11015
5.95 11015.0
# x=5.96 f(x)=11015
5.96 11015.0
# x=5.97 f(x)=11096
5.97 11096.0
# x=5.98 f(x)=11148
5.98 11148.0
# x=5.99 f(x)=11018
5.99 11018.0
# x=6.0 f(x)=11089
6.0 11089.0
# x=6.01 f(x)=11026
6.01 11026.0
# x=6.0200000000000005 f(x)=11130
6.0200000000000005 11130.0
# x=6.03 f(x)=11015
6.03 11015.0
# x=6.04 f(x)=11101
6.04 11101.0
# x=6.05 f(x)=10981
6.05 10981.0
# x=6.0600000000000005 f(x)=11473
6.0600000000000005 11473.0
# x=6.07 f(x)=11528
6.07 11528.0
# x=6.08 f(x)=11333
6.08 11333.0
# x=6.09 f(x)=11455
6.09 11455.0
# x=6.1000000000000005 f(x)=11346
6.1000000000000005 11346.0
# x=6.11 f(x)=11388
6.11 11388.0
# x=6.12 f(x)=11326
6.12 11326.0
# x=6.13 f(x)=11672
6.13 11672.0
# x=6.140000000000001 f(x)=11555
6.140000000000001 11555.0
# x=6.15 f(x)=11687
6.15 11687.0
# x=6.16 f(x)=11330
6.16 11330.0
# x=6.17 f(x)=11718
6.17 11718.0
# x=6.18 f(x)=11774
6.18 11774.0
# x=6.19 f(x)=11614
6.19 11614.0
# x=6.2 f(x)=11596
6.2 11596.0
# x=6.21 f(x)=11848
6.21 11848.0
# x=6.22 f(x)=11894
6.22 11894.0
# x=6.23 f(x)=11874
6.23 11874.0
# x=6.24 f(x)=11868
6.24 11868.0
# x=6.25 f(x)=11845
6.25 11845.0
# x=6.26 f(x)=11829
6.26 11829.0
# x=6.2700000000000005 f(x)=12060
6.2700000000000005 12060.0
# x=6.28 f(x)=11715
6.28 11715.0
# x=6.29 f(x)=11873
6.29 11873.0
# x=6.3 f(x)=11867
6.3 11867.0
# x=6.3100000000000005 f(x)=11976
6.3100000000000005 11976.0
# x=6.32 f(x)=12205
6.32 12205.0
# x=6.33 f(x)=12089
6.33 12089.0
# x=6.34 f(x)=11951
6.34 11951.0
# x=6.3500000000000005 f(x)=12349
6.3500000000000005 12349.0
# x=6.36 f(x)=12152
6.36 12152.0
# x=6.37 f(x)=12097
6.37 12097.0
# x=6.38 f(x)=12202
6.38 12202.0
# x=6.390000000000001 f(x)=12081
6.390000000000001 12081.0
# x=6.4 f(x)=12268
6.4 12268.0
# x=6.41 f(x)=12187
6.41 12187.0
# x=6.42 f(x)=12388
6.42 12388.0
# x=6.43 f(x)=12336
6.43 12336.0
# x=6.44 f(x)=12350
6.44 12350.0
# x=6.45 f(x)=12569
6.45 12569.0
# x=6.46 f(x)=12508
6.46 12508.0
# x=6.47 f(x)=12387
6.47 12387.0
# x=6.48 f(x)=12666
6.48 12666.0
# x=6.49 f(x)=12642
6.49 12642.0
# x=6.5 f(x)=12604
6.5 12604.0
# x=6.51 f(x)=12544
6.51 12544.0
# x=6.5200000000000005 f(x)=12669
6.5200000000000005 12669.0
# x=6.53 f(x)=12579
6.53 12579.0
# x=6.54 f(x)=12629
6.54 12629.0
# x=6.55 f(x)=12553
6.55 12553.0
# x=6.5600000000000005 f(x)=12674
6.5600000000000005 12674.0
# x=6.57 f(x)=12621
6.57 12621.0
# x=6.58 f(x)=12604
6.58 12604.0
# x=6.59 f(x)=12667
6.59 12667.0
# x=6.6000000000000005 f(x)=12741
6.6000000000000005 12741.0
# x=6.61 f(x)=12906
6.61 12906.0
# x=6.62 f(x)=12643
6.62 12643.0
# x=6.63 f(x)=12975
6.63 12975.0
# x=6.640000000000001 f(x)=13094
6.640000000000001 13094.0
# x=6.65 f(x)=13058
6.65 13058.0
# x=6.66 f(x)=13110
6.66 13110.0
# x=6.67 f(x)=12883
6.67 12883.0
# x=6.68 f(x)=12965
6.68 12965.0
# x=6.69 f(x)=13024
6.69 13024.0
# x=6.7 f(x)=12950
6.7 12950.0
# x=6.71 f(x)=13156
6.71 13156.0
# x=6.72 f(x)=12789
6.72 12789.0
# x=6.73 f(x)=13261
6.73 13261.0
# x=6.74 f(x)=13130
6.74 13130.0
# x=6.75 f(x)=13171
6.75 13171.0
# x=6.76 f(x)=13337
6.76 13337.0
# x=6.7700000000000005 f(x)=13416
6.7700000000000005 13416.0
# x=6.78 f(x)=13241
6.78 13241.0
# x=6.79 f(x)=13216
6.79 13216.0
# x=6.8 f(x)=13505
6.8 13505.0
# x=6.8100000000000005 f(x)=13184
6.8100000000000005 13184.0
# x=6.82 f(x)=13325
6.82 13325.0
# x=6.83 f(x)=13507
6.83 13507.0
# x=6.84 f(x)=13339
6.84 13339.0
# x=6.8500000000000005 f(x)=13282
6.8500000000000005 13282.0
# x=6.86 f(x)=13497
6.86 13497.0
# x=6.87 f(x)=13379
6.87 13379.0
# x=6.88 f(x)=13503
6.88 13503.0
# x=6.890000000000001 f(x)=13564
6.890000000000001 13564.0
# x=6.9 f(x)=13698
6.9 13698.0
# x=6.91 f(x)=13680
6.91 13680.0
# x=6.92 f(x)=13685
6.92 13685.0
# x=6.93 f(x)=13605
6.93 13605.0
# x=6.94 f(x)=13776
6.94 13776.0
# x=6.95 f(x)=13774
6.95 13774.0
# x=6.96 f(x)=13791
6.96 13791.0
# x=6.97 f(x)=13897
6.97 13897.0
# x=6.98 f(x)=13810
6.98 13810.0
# x=6.99 f(x)=14005
6.99 14005.0
# x=7.0 f(x)=13776
7.0 13776.0
# x=7.01 f(x)=13985
7.01 13985.0
# x=7.0200000000000005 f(x)=13855
7.0200000000000005 13855.0
# x=7.03 f(x)=13954
7.03 13954.0
# x=7.04 f(x)=14052
7.04 14052.0
# x=7.05 f(x)=14108
7.05 14108.0
# x=7.0600000000000005 f(x)=14002
7.0600000000000005 14002.0
# x=7.07 f(x)=14134
7.07 14134.0
# x=7.08 f(x)=14164
7.08 14164.0
# x=7.09 f(x)=14006
7.09 14006.0
# x=7.1000000000000005 f(x)=14151
7.1000000000000005 14151.0
# x=7.11 f(x)=14092
7.11 14092.0
# x=7.12 f(x)=14210
7.12 14210.0
# x=7.13 f(x)=14231
7.13 14231.0
# x=7.140000000000001 f(x)=14340
7.140000000000001 14340.0
# x=7.15 f(x)=14365
7.15 14365.0
# x=7.16 f(x)=14002
7.16 14002.0
# x=7.17 f(x)=14458
7.17 14458.0
# x=7.18 f(x)=14365
7.18 14365.0
# x=7.19 f(x)=14384
7.19 14384.0
# x=7.2 f(x)=14554
7.2 14554.0
# x=7.21 f(x)=14544
7.21 14544.0
# x=7.22 f(x)=14604
7.22 14604.0
# x=7.23 f(x)=14485
7.23 14485.0
# x=7.24 f(x)=14728
7.24 14728.0
# x=7.25 f(x)=14459
7.25 14459.0
# x=7.26 f(x)=14595
7.26 14595.0
# x=7.2700000000000005 f(x)=14756
7.2700000000000005 14756.0
# x=7.28 f(x)=14801
7.28 14801.0
# x=7.29 f(x)=14764
7.29 14764.0
# x=7.3 f(x)=14696
7.3 14696.0
# x=7.3100000000000005 f(x)=14788
7.3100000000000005 14788.0
# x=7.32 f(x)=14795
7.32 14795.0
# x=7.33 f(x)=14713
7.33 14713.0
# x=7.34 f(x)=14893
7.34 14893.0
# x=7.3500000000000005 f(x)=14843
7.3500000000000005 14843.0
# x=7.36 f(x)=14752
7.36 14752.0
# x=7.37 f(x)=14866
7.37 14866.0
# x=7.38 f(x)=15101
7.38 15101.0
# x=7.390000000000001 f(x)=15190
7.390000000000001 15190.0
# x=7.4 f(x)=14940
7.4 14940.0
# x=7.41 f(x)=15201
7.41 15201.0
# x=7.42 f(x)=15187
7.42 15187.0
# x=7.43 f(x)=15047
7.43 15047.0
# x=7.44 f(x)=15220
7.44 15220.0
# x=7.45 f(x)=14993
7.45 14993.0
# x=7.46 f(x)=15328
7.46 15328.0
# x=7.47 f(x)=15277
7.47 15277.0
# x=7.48 f(x)=15270
7.48 15270.0
# x=7.49 f(x)=15482
7.49 15482.0
# x=7.5 f(x)=15230
7.5 15230.0
# x=7.51 f(x)=15392
7.51 15392.0
# x=7.5200000000000005 f(x)=15257
7.5200000000000005 15257.0
# x=7.53 f(x)=15182
7.53 15182.0
# x=7.54 f(x)=15323
7.54 15323.0
# x=7.55 f(x)=15723
7.55 15723.0
# x=7.5600000000000005 f(x)=15493
7.5600000000000005 15493.0
# x=7.57 f(x)=15351
7.57 15351.0
# x=7.58 f(x)=15248
7.58 15248.0
# x=7.59 f(x)=15565
7.59 15565.0
# x=7.6000000000000005 f(x)=15389
7.6000000000000005 15389.0
# x=7.61 f(x)=15649
7.61 15649.0
# x=7.62 f(x)=15769
7.62 15769.0
# x=7.63 f(x)=15562
7.63 15562.0
# x=7.640000000000001 f(x)=15706
7.640000000000001 15706.0
# x=7.65 f(x)=15711
7.65 15711.0
# x=7.66 f(x)=15620
7.66 15620.0
# x=7.67 f(x)=15753
7.67 15753.0
# x=7.68 f(x)=15694
7.68 15694.0
# x=7.69 f(x)=15969
7.69 15969.0
# x=7.7 f(x)=15723
7.7 15723.0
# x=7.71 f(x)=15809
7.71 15809.0
# x=7.72 f(x)=16204
7.72 16204.0
# x=7.73 f(x)=15796
7.73 15796.0
# x=7.74 f(x)=16019
7.74 16019.0
# x=7.75 f(x)=15893
7.75 15893.0
# x=7.76 f(x)=16043
7.76 16043.0
# x=7.7700000000000005 f(x)=16008
7.7700000000000005 16008.0
# x=7.78 f(x)=15876
7.78 15876.0
# x=7.79 f(x)=15964
7.79 15964.0
# x=7.8 f(x)=16099
7.8 16099.0
# x=7.8100000000000005 f(x)=16295
7.8100000000000005 16295.0
# x=7.82 f(x)=16215
7.82 16215.0
# x=7.83 f(x)=16237
7.83 16237.0
# x=7.84 f(x)=16239
7.84 16239.0
# x=7.8500000000000005 f(x)=16223
7.8500000000000005 16223.0
# x=7.86 f(x)=16239
7.86 16239.0
# x=7.87 f(x)=16283
7.87 16283.0
# x=7.88 f(x)=16408
7.88 16408.0
# x=7.890000000000001 f(x)=16261
7.890000000000001 16261.0
# x=7.9 f(x)=16162
7.9 16162.0
# x=7.91 f(x)=16381
7.91 16381.0
# x=7.92 f(x)=16572
7.92 16572.0
# x=7.930000000000001 f(x)=16514
7.930000000000001 16514.0
# x=7.94 f(x)=16563
7.94 16563.0
# x=7.95 f(x)=16724
7.95 16724.0
# x=7.96 f(x)=16596
7.96 16596.0
# x=7.97 f(x)=16519
7.97 16519.0
# x=7.98 f(x)=16613
7.98 16613.0
# x=7.99 f(x)=16689
7.99 16689.0
