"t"	"Vehicle Id"	"Segment Id"	"Segment Length (m)"	"Distance (m)"
"0.5"	"""abc47ac4-156c-468d-9146-c3c70e20f029"""	"""ddd763893b864fbb193be0a581e190b3#938620;2302823;939620;2302950"""	"1008.0322415478585"	"992.6404122219127"
"1.0"	"""abc47ac4-156c-468d-9146-c3c70e20f029"""	"""ddd763893b864fbb193be0a581e190b3#938620;2302823;939620;2302950"""	"1008.0322415478585"	"977.2485828959669"
"1.5"	"""abc47ac4-156c-468d-9146-c3c70e20f029"""	"""ddd763893b864fbb193be0a581e190b3#938620;2302823;939620;2302950"""	"1008.0322415478585"	"961.856753570021"
"2.0"	"""abc47ac4-156c-468d-9146-c3c70e20f029"""	"""ddd763893b864fbb193be0a581e190b3#938620;2302823;939620;2302950"""	"1008.0322415478585"	"946.4649242440753"
"2.5"	"""abc47ac4-156c-468d-9146-c3c70e20f029"""	"""ddd763893b864fbb193be0a581e190b3#938620;2302823;939620;2302950"""	"1008.0322415478585"	"931.0730949181295"
"3.0"	"""abc47ac4-156c-468d-9146-c3c70e20f029"""	"""ddd763893b864fbb193be0a581e190b3#938620;2302823;939620;2302950"""	"1008.0322415478585"	"915.6812655921838"
"3.5"	"""abc47ac4-156c-468d-9146-c3c70e20f029"""	"""ddd763893b864fbb193be0a581e190b3#938620;2302823;939620;2302950"""	"1008.0322415478585"	"900.289436266238"
