"t"	"Segment Id"	"Nb bodies (#)"	"Avg distance (m)"	"Std dev distance (m)"	"Min distance (m)"	"Max distance (m)"
"0.5"	"ddd763893b864fbb193be0a581e190b3#938620;2302823;939620;2302950"	"1"	"992.6404122219127"	"0.0"	"992.6404122219127"	"992.6404122219127"
"1.0"	"ddd763893b864fbb193be0a581e190b3#938620;2302823;939620;2302950"	"1"	"977.2485828959669"	"0.0"	"977.2485828959669"	"977.2485828959669"
"1.5"	"ddd763893b864fbb193be0a581e190b3#938620;2302823;939620;2302950"	"1"	"961.856753570021"	"0.0"	"961.856753570021"	"961.856753570021"
"2.0"	"ddd763893b864fbb193be0a581e190b3#938620;2302823;939620;2302950"	"1"	"946.4649242440753"	"0.0"	"946.4649242440753"	"946.4649242440753"
"2.5"	"ddd763893b864fbb193be0a581e190b3#938620;2302823;939620;2302950"	"1"	"931.0730949181295"	"0.0"	"931.0730949181295"	"931.0730949181295"
"3.0"	"ddd763893b864fbb193be0a581e190b3#938620;2302823;939620;2302950"	"1"	"915.6812655921838"	"0.0"	"915.6812655921838"	"915.6812655921838"
"3.5"	"ddd763893b864fbb193be0a581e190b3#938620;2302823;939620;2302950"	"1"	"900.289436266238"	"0.0"	"900.289436266238"	"900.289436266238"
