"t"	"Vehicle Id"	"Cumulative Back Crashes"	"Cumulative Front Crashes"	"Cumulative Crashes"	"Relative Speed"
"0.5"	"""bbb6c183-0f85-450b-a02a-67d86642ca2d"""	"0"	"0"	"0"	"0.0"
"1.0"	"""bbb6c183-0f85-450b-a02a-67d86642ca2d"""	"0"	"0"	"0"	"0.0"
"1.5"	"""bbb6c183-0f85-450b-a02a-67d86642ca2d"""	"0"	"0"	"0"	"0.0"
"2.0"	"""bbb6c183-0f85-450b-a02a-67d86642ca2d"""	"0"	"0"	"0"	"0.0"
"2.5"	"""bbb6c183-0f85-450b-a02a-67d86642ca2d"""	"0"	"0"	"0"	"0.0"
"3.0"	"""bbb6c183-0f85-450b-a02a-67d86642ca2d"""	"0"	"0"	"0"	"0.0"
"3.5"	"""bbb6c183-0f85-450b-a02a-67d86642ca2d"""	"0"	"0"	"0"	"0.0"
"4.0"	"""bbb6c183-0f85-450b-a02a-67d86642ca2d"""	"0"	"0"	"0"	"0.0"
"4.0"	"""bbb6c183-0f85-450b-a02a-67d86642ca2d"""	"0"	"0"	"0"	"0.0"
"4.5"	"""bbb6c183-0f85-450b-a02a-67d86642ca2d"""	"0"	"0"	"0"	"0.0"
"4.5"	"""bbb6c183-0f85-450b-a02a-67d86642ca2d"""	"0"	"0"	"0"	"0.0"
"5.0"	"""bbb6c183-0f85-450b-a02a-67d86642ca2d"""	"0"	"0"	"0"	"0.0"
"5.0"	"""bbb6c183-0f85-450b-a02a-67d86642ca2d"""	"0"	"0"	"0"	"0.0"
"5.5"	"""bbb6c183-0f85-450b-a02a-67d86642ca2d"""	"0"	"0"	"0"	"0.0"
"5.5"	"""bbb6c183-0f85-450b-a02a-67d86642ca2d"""	"0"	"0"	"0"	"0.0"
"6.0"	"""bbb6c183-0f85-450b-a02a-67d86642ca2d"""	"0"	"0"	"0"	"0.0"
"6.0"	"""bbb6c183-0f85-450b-a02a-67d86642ca2d"""	"0"	"0"	"0"	"0.0"
"6.5"	"""bbb6c183-0f85-450b-a02a-67d86642ca2d"""	"0"	"0"	"0"	"0.0"
"6.5"	"""bbb6c183-0f85-450b-a02a-67d86642ca2d"""	"0"	"0"	"0"	"0.0"
"7.0"	"""bbb6c183-0f85-450b-a02a-67d86642ca2d"""	"0"	"0"	"0"	"0.0"
"7.0"	"""bbb6c183-0f85-450b-a02a-67d86642ca2d"""	"0"	"0"	"0"	"0.0"
"7.5"	"""bbb6c183-0f85-450b-a02a-67d86642ca2d"""	"0"	"0"	"0"	"0.0"
"7.5"	"""bbb6c183-0f85-450b-a02a-67d86642ca2d"""	"0"	"0"	"0"	"0.0"
"8.0"	"""bbb6c183-0f85-450b-a02a-67d86642ca2d"""	"0"	"0"	"0"	"0.0"
"8.0"	"""bbb6c183-0f85-450b-a02a-67d86642ca2d"""	"0"	"0"	"0"	"0.0"
"8.5"	"""bbb6c183-0f85-450b-a02a-67d86642ca2d"""	"0"	"0"	"0"	"0.0"
"8.5"	"""bbb6c183-0f85-450b-a02a-67d86642ca2d"""	"0"	"0"	"0"	"0.0"
"9.0"	"""bbb6c183-0f85-450b-a02a-67d86642ca2d"""	"0"	"0"	"0"	"0.0"
"9.0"	"""bbb6c183-0f85-450b-a02a-67d86642ca2d"""	"0"	"0"	"0"	"0.0"
"9.5"	"""bbb6c183-0f85-450b-a02a-67d86642ca2d"""	"0"	"0"	"0"	"0.0"
"9.5"	"""bbb6c183-0f85-450b-a02a-67d86642ca2d"""	"0"	"0"	"0"	"0.0"
"10.0"	"""bbb6c183-0f85-450b-a02a-67d86642ca2d"""	"0"	"0"	"0"	"0.0"
"10.0"	"""bbb6c183-0f85-450b-a02a-67d86642ca2d"""	"0"	"0"	"0"	"0.0"
"10.5"	"""bbb6c183-0f85-450b-a02a-67d86642ca2d"""	"0"	"0"	"0"	"0.0"
"10.5"	"""bbb6c183-0f85-450b-a02a-67d86642ca2d"""	"0"	"0"	"0"	"0.0"
"11.0"	"""bbb6c183-0f85-450b-a02a-67d86642ca2d"""	"0"	"0"	"0"	"0.0"
"11.0"	"""bbb6c183-0f85-450b-a02a-67d86642ca2d"""	"0"	"0"	"0"	"0.0"
"11.5"	"""bbb6c183-0f85-450b-a02a-67d86642ca2d"""	"0"	"0"	"0"	"0.0"
"11.5"	"""bbb6c183-0f85-450b-a02a-67d86642ca2d"""	"0"	"0"	"0"	"0.0"
"12.0"	"""bbb6c183-0f85-450b-a02a-67d86642ca2d"""	"0"	"0"	"0"	"0.0"
"12.0"	"""bbb6c183-0f85-450b-a02a-67d86642ca2d"""	"0"	"0"	"0"	"0.0"
"12.5"	"""bbb6c183-0f85-450b-a02a-67d86642ca2d"""	"0"	"0"	"0"	"0.0"
"12.5"	"""bbb6c183-0f85-450b-a02a-67d86642ca2d"""	"0"	"0"	"0"	"0.0"
"13.0"	"""bbb6c183-0f85-450b-a02a-67d86642ca2d"""	"1"	"0"	"1"	"-18.442218277639455"
"13.0"	"""bbb6c183-0f85-450b-a02a-67d86642ca2d"""	"1"	"0"	"1"	"-18.442218277639455"
"13.5"	"""bbb6c183-0f85-450b-a02a-67d86642ca2d"""	"1"	"0"	"1"	"-18.442218277639455"
"13.5"	"""bbb6c183-0f85-450b-a02a-67d86642ca2d"""	"1"	"0"	"1"	"-18.442218277639455"
