"t"	"Vehicle Id"	"Segment Id"	"Speed (m/s)"	"Acceleration (m/s**2)"
"0.5"	"""594bfdf0-8c04-445e-a6ba-946d72ae8947"""	"""2a082826f40d82b2cb917df38377bd83#938636;2302826;938637;2302827"""	"33.13038476490568"	"0.0"
"1.0"	"""594bfdf0-8c04-445e-a6ba-946d72ae8947"""	"""e3f7f63734a7eb6cacf6f12acabda149#938652;2302828;938653;2302829"""	"33.13038476490568"	"0.0"
"1.5"	"""594bfdf0-8c04-445e-a6ba-946d72ae8947"""	"""8e9f6d70c9caf32c7fae302b65b6a30a#938669;2302831;938670;2302831"""	"33.13038476490568"	"0.0"
"2.0"	"""594bfdf0-8c04-445e-a6ba-946d72ae8947"""	"""043153277a47676890c7b32d0e1733af#938685;2302833;938686;2302833"""	"33.13038476490568"	"0.0"
"2.5"	"""594bfdf0-8c04-445e-a6ba-946d72ae8947"""	"""1a69cdf0ddf2e673901c4004893c33e7#938702;2302835;938702;2302835"""	"33.13038476490568"	"0.0"
"3.0"	"""594bfdf0-8c04-445e-a6ba-946d72ae8947"""	"""a590e77cc85f0a4036695bbaf4778fc6#938718;2302837;938719;2302838"""	"33.13038476490568"	"0.0"
"3.5"	"""594bfdf0-8c04-445e-a6ba-946d72ae8947"""	"""6dfb0477f3b41d33db7e4f2400ed5580#938734;2302839;938735;2302840"""	"33.13038476490568"	"0.0"
