"t"	"Vehicle Id"	"Segment Id"	"Segment Length (m)"	"Distance (m)"
"0.5"	"""594bfdf0-8c04-445e-a6ba-946d72ae8947"""	"""ddd763893b864fbb193be0a581e190b3#938620;2302823;939620;2302950"""	"1008.0322415478585"	"991.4670491654056"
"1.0"	"""594bfdf0-8c04-445e-a6ba-946d72ae8947"""	"""ddd763893b864fbb193be0a581e190b3#938620;2302823;939620;2302950"""	"1008.0322415478585"	"974.9018567829528"
"1.5"	"""594bfdf0-8c04-445e-a6ba-946d72ae8947"""	"""ddd763893b864fbb193be0a581e190b3#938620;2302823;939620;2302950"""	"1008.0322415478585"	"958.3366644004999"
"2.0"	"""594bfdf0-8c04-445e-a6ba-946d72ae8947"""	"""ddd763893b864fbb193be0a581e190b3#938620;2302823;939620;2302950"""	"1008.0322415478585"	"941.7714720180471"
"2.5"	"""594bfdf0-8c04-445e-a6ba-946d72ae8947"""	"""ddd763893b864fbb193be0a581e190b3#938620;2302823;939620;2302950"""	"1008.0322415478585"	"925.2062796355942"
"3.0"	"""594bfdf0-8c04-445e-a6ba-946d72ae8947"""	"""ddd763893b864fbb193be0a581e190b3#938620;2302823;939620;2302950"""	"1008.0322415478585"	"908.6410872531414"
"3.5"	"""594bfdf0-8c04-445e-a6ba-946d72ae8947"""	"""ddd763893b864fbb193be0a581e190b3#938620;2302823;939620;2302950"""	"1008.0322415478585"	"892.0758948706886"
