"t"	"Vehicle Id"	"Cumulative Back Crashes"	"Cumulative Front Crashes"	"Cumulative Crashes"	"Relative Speed"
"0.5"	"""594bfdf0-8c04-445e-a6ba-946d72ae8947"""	"0"	"0"	"0"	"0.0"
"1.0"	"""594bfdf0-8c04-445e-a6ba-946d72ae8947"""	"0"	"0"	"0"	"0.0"
"1.5"	"""594bfdf0-8c04-445e-a6ba-946d72ae8947"""	"0"	"0"	"0"	"0.0"
"2.0"	"""594bfdf0-8c04-445e-a6ba-946d72ae8947"""	"0"	"0"	"0"	"0.0"
"2.5"	"""594bfdf0-8c04-445e-a6ba-946d72ae8947"""	"0"	"0"	"0"	"0.0"
"3.0"	"""594bfdf0-8c04-445e-a6ba-946d72ae8947"""	"0"	"0"	"0"	"0.0"
"3.5"	"""594bfdf0-8c04-445e-a6ba-946d72ae8947"""	"0"	"0"	"0"	"0.0"
