<?xml version="1.0" encoding="UTF-8" standalone="no"?>
<!-- Created with Inkscape (http://www.inkscape.org/) -->

<svg
   xmlns:dc="http://purl.org/dc/elements/1.1/"
   xmlns:cc="http://creativecommons.org/ns#"
   xmlns:rdf="http://www.w3.org/1999/02/22-rdf-syntax-ns#"
   xmlns:svg="http://www.w3.org/2000/svg"
   xmlns="http://www.w3.org/2000/svg"
   xmlns:xlink="http://www.w3.org/1999/xlink"
   xmlns:sodipodi="http://sodipodi.sourceforge.net/DTD/sodipodi-0.dtd"
   xmlns:inkscape="http://www.inkscape.org/namespaces/inkscape"
   width="683.76666"
   height="315.66757"
   id="svg3282"
   version="1.1"
   inkscape:version="0.48.3.1 r9886"
   sodipodi:docname="general_architecture.svg">
  <defs
     id="defs3284">
    <linearGradient
       id="linearGradient4620">
      <stop
         style="stop-color:#f7f8ae;stop-opacity:1;"
         offset="0"
         id="stop4622" />
      <stop
         style="stop-color:#2a5879;stop-opacity:1;"
         offset="1"
         id="stop4624" />
    </linearGradient>
    <linearGradient
       inkscape:collect="always"
       xlink:href="#linearGradient4620-6"
       id="linearGradient4612-3"
       x1="386.04196"
       y1="561.83728"
       x2="386.04196"
       y2="596.17999"
       gradientUnits="userSpaceOnUse" />
    <linearGradient
       id="linearGradient4620-6">
      <stop
         style="stop-color:#f7f8ae;stop-opacity:1;"
         offset="0"
         id="stop4622-6" />
      <stop
         style="stop-color:#2a5879;stop-opacity:1;"
         offset="1"
         id="stop4624-0" />
    </linearGradient>
    <linearGradient
       id="linearGradient4620-62">
      <stop
         style="stop-color:#f7f8ae;stop-opacity:1;"
         offset="0"
         id="stop4622-9" />
      <stop
         style="stop-color:#2a5879;stop-opacity:1;"
         offset="1"
         id="stop4624-05" />
    </linearGradient>
    <linearGradient
       id="linearGradient4620-9">
      <stop
         style="stop-color:#f7f8ae;stop-opacity:1;"
         offset="0"
         id="stop4622-8" />
      <stop
         style="stop-color:#2a5879;stop-opacity:1;"
         offset="1"
         id="stop4624-6" />
    </linearGradient>
    <linearGradient
       inkscape:collect="always"
       xlink:href="#linearGradient4620-3"
       id="linearGradient4612-2"
       x1="386.04196"
       y1="561.83728"
       x2="386.04196"
       y2="596.17999"
       gradientUnits="userSpaceOnUse" />
    <linearGradient
       id="linearGradient4620-3">
      <stop
         style="stop-color:#f7f8ae;stop-opacity:1;"
         offset="0"
         id="stop4622-7" />
      <stop
         style="stop-color:#2a5879;stop-opacity:1;"
         offset="1"
         id="stop4624-9" />
    </linearGradient>
    <linearGradient
       inkscape:collect="always"
       xlink:href="#linearGradient4620-9"
       id="linearGradient3951"
       gradientUnits="userSpaceOnUse"
       x1="386.04196"
       y1="561.83728"
       x2="386.04196"
       y2="596.17999" />
    <linearGradient
       inkscape:collect="always"
       xlink:href="#linearGradient4620"
       id="linearGradient3953"
       gradientUnits="userSpaceOnUse"
       x1="386.04196"
       y1="561.83728"
       x2="386.04196"
       y2="596.17999" />
    <linearGradient
       inkscape:collect="always"
       xlink:href="#linearGradient4620-62"
       id="linearGradient3955"
       gradientUnits="userSpaceOnUse"
       x1="386.04196"
       y1="561.83728"
       x2="386.04196"
       y2="596.17999" />
    <linearGradient
       id="linearGradient4620-3-7">
      <stop
         style="stop-color:#f7f8ae;stop-opacity:1;"
         offset="0"
         id="stop4622-7-3" />
      <stop
         style="stop-color:#2a5879;stop-opacity:1;"
         offset="1"
         id="stop4624-9-2" />
    </linearGradient>
    <linearGradient
       id="linearGradient3978">
      <stop
         style="stop-color:#b1baca;stop-opacity:1;"
         offset="0"
         id="stop3980" />
      <stop
         style="stop-color:#1d3358;stop-opacity:1;"
         offset="1"
         id="stop3982" />
    </linearGradient>
    <linearGradient
       id="linearGradient3912">
      <stop
         style="stop-color:#f1bb96;stop-opacity:1;"
         offset="0"
         id="stop3914" />
      <stop
         style="stop-color:#7c3c11;stop-opacity:1;"
         offset="1"
         id="stop3916" />
    </linearGradient>
    <linearGradient
       id="linearGradient3885">
      <stop
         style="stop-color:#c4bbb5;stop-opacity:1;"
         offset="0"
         id="stop3887" />
      <stop
         style="stop-color:#513624;stop-opacity:1;"
         offset="1"
         id="stop3889" />
    </linearGradient>
    <linearGradient
       id="linearGradient4076">
      <stop
         style="stop-color:#a8bae1;stop-opacity:1;"
         offset="0"
         id="stop4078" />
      <stop
         style="stop-color:#1e4db2;stop-opacity:1;"
         offset="1"
         id="stop4080" />
    </linearGradient>
    <radialGradient
       r="30.06176"
       fy="710.47253"
       fx="505.10614"
       cy="710.47253"
       cx="505.10614"
       gradientTransform="matrix(-0.49955375,0.09897502,-0.13700693,-0.69151119,828.95306,1053.669)"
       gradientUnits="userSpaceOnUse"
       id="radialGradient4099"
       xlink:href="#linearGradient4076-8"
       inkscape:collect="always" />
    <linearGradient
       id="linearGradient4076-8">
      <stop
         style="stop-color:#a8bae1;stop-opacity:1;"
         offset="0"
         id="stop4078-9" />
      <stop
         style="stop-color:#1e4db2;stop-opacity:1;"
         offset="1"
         id="stop4080-6" />
    </linearGradient>
    <radialGradient
       inkscape:collect="always"
       xlink:href="#linearGradient3978-9"
       id="radialGradient3986-7"
       cx="390.57013"
       cy="639.18427"
       fx="390.57013"
       fy="639.18427"
       r="145.37917"
       gradientTransform="matrix(-0.27679557,0.49821581,-0.5462972,-0.30350832,847.86279,640.11529)"
       gradientUnits="userSpaceOnUse" />
    <linearGradient
       id="linearGradient3978-9">
      <stop
         style="stop-color:#b1baca;stop-opacity:1;"
         offset="0"
         id="stop3980-0" />
      <stop
         style="stop-color:#1d3358;stop-opacity:1;"
         offset="1"
         id="stop3982-6" />
    </linearGradient>
    <linearGradient
       inkscape:collect="always"
       xlink:href="#linearGradient3912-7"
       id="linearGradient3918-1"
       x1="301.07141"
       y1="567.005"
       x2="260.04135"
       y2="413.87875"
       gradientUnits="userSpaceOnUse" />
    <linearGradient
       id="linearGradient3912-7">
      <stop
         style="stop-color:#f1bb96;stop-opacity:1;"
         offset="0"
         id="stop3914-1" />
      <stop
         style="stop-color:#7c3c11;stop-opacity:1;"
         offset="1"
         id="stop3916-1" />
    </linearGradient>
    <radialGradient
       inkscape:collect="always"
       xlink:href="#linearGradient3885-7"
       id="radialGradient3901-1"
       cx="399.32474"
       cy="423.78525"
       fx="399.32474"
       fy="423.78525"
       r="138.9874"
       gradientTransform="matrix(0.70911505,-0.14524364,0.10770156,0.52582543,70.515226,258.94756)"
       gradientUnits="userSpaceOnUse" />
    <linearGradient
       id="linearGradient3885-7">
      <stop
         style="stop-color:#c4bbb5;stop-opacity:1;"
         offset="0"
         id="stop3887-3" />
      <stop
         style="stop-color:#513624;stop-opacity:1;"
         offset="1"
         id="stop3889-0" />
    </linearGradient>
    <radialGradient
       inkscape:collect="always"
       xlink:href="#linearGradient4076-88"
       id="radialGradient4082-1"
       cx="495.08655"
       cy="720.58246"
       fx="495.08655"
       fy="720.58246"
       r="30.06176"
       gradientTransform="matrix(-0.64381014,0.00562089,-0.01594075,-1.825834,820.52376,2005.7361)"
       gradientUnits="userSpaceOnUse" />
    <linearGradient
       id="linearGradient4076-88">
      <stop
         style="stop-color:#a8bae1;stop-opacity:1;"
         offset="0"
         id="stop4078-90" />
      <stop
         style="stop-color:#1e4db2;stop-opacity:1;"
         offset="1"
         id="stop4080-1" />
    </linearGradient>
    <radialGradient
       r="30.06176"
       fy="710.47253"
       fx="505.10614"
       cy="710.47253"
       cx="505.10614"
       gradientTransform="matrix(-0.49955375,0.09897502,-0.13700693,-0.69151119,828.95306,1053.669)"
       gradientUnits="userSpaceOnUse"
       id="radialGradient4163-3"
       xlink:href="#linearGradient4076-8-0"
       inkscape:collect="always" />
    <linearGradient
       id="linearGradient4076-8-0">
      <stop
         style="stop-color:#a8bae1;stop-opacity:1;"
         offset="0"
         id="stop4078-9-1" />
      <stop
         style="stop-color:#1e4db2;stop-opacity:1;"
         offset="1"
         id="stop4080-6-6" />
    </linearGradient>
    <radialGradient
       r="30.06176"
       fy="710.47253"
       fx="505.10614"
       cy="710.47253"
       cx="505.10614"
       gradientTransform="matrix(-0.49955375,0.09897502,-0.13700693,-0.69151119,828.95306,1053.669)"
       gradientUnits="userSpaceOnUse"
       id="radialGradient3148"
       xlink:href="#linearGradient4076-8-0"
       inkscape:collect="always" />
    <radialGradient
       inkscape:collect="always"
       xlink:href="#linearGradient4040"
       id="radialGradient4046"
       cx="428.59689"
       cy="463.82422"
       fx="428.59689"
       fy="463.82422"
       r="33.011368"
       gradientTransform="matrix(-0.30387183,0.43260535,-0.51136462,-0.35919411,796.0187,445.43733)"
       gradientUnits="userSpaceOnUse" />
    <linearGradient
       id="linearGradient4040">
      <stop
         style="stop-color:#ded8a0;stop-opacity:1;"
         offset="0"
         id="stop4042" />
      <stop
         style="stop-color:#c3b84f;stop-opacity:1;"
         offset="1"
         id="stop4044" />
    </linearGradient>
    <linearGradient
       inkscape:collect="always"
       xlink:href="#linearGradient3912-7-5"
       id="linearGradient3258"
       gradientUnits="userSpaceOnUse"
       x1="357.16238"
       y1="691.20648"
       x2="246.01862"
       y2="277.65781" />
    <linearGradient
       id="linearGradient3912-7-5">
      <stop
         style="stop-color:#f1bb96;stop-opacity:1;"
         offset="0"
         id="stop3914-1-4" />
      <stop
         style="stop-color:#7c3c11;stop-opacity:1;"
         offset="1"
         id="stop3916-1-4" />
    </linearGradient>
    <radialGradient
       inkscape:collect="always"
       xlink:href="#linearGradient4028"
       id="radialGradient4036"
       cx="443.02753"
       cy="394.87625"
       fx="443.02753"
       fy="394.87625"
       r="34.667557"
       gradientTransform="matrix(0.42695565,-0.00436664,0.00324954,0.3177296,252.59126,274.30154)"
       gradientUnits="userSpaceOnUse" />
    <linearGradient
       id="linearGradient4028">
      <stop
         style="stop-color:#e6baa3;stop-opacity:1;"
         offset="0"
         id="stop4030" />
      <stop
         style="stop-color:#bb3f00;stop-opacity:1;"
         offset="1"
         id="stop4032" />
    </linearGradient>
    <radialGradient
       inkscape:collect="always"
       xlink:href="#linearGradient4053"
       id="radialGradient4059"
       cx="433.81763"
       cy="410.30634"
       fx="433.81763"
       fy="410.30634"
       r="18.683472"
       gradientTransform="matrix(1,0,0,1.6771938,0,-277.8569)"
       gradientUnits="userSpaceOnUse" />
    <linearGradient
       id="linearGradient4053">
      <stop
         style="stop-color:#cbcbcb;stop-opacity:1;"
         offset="0"
         id="stop4055" />
      <stop
         style="stop-color:#767677;stop-opacity:1;"
         offset="1"
         id="stop4057" />
    </linearGradient>
    <radialGradient
       r="18.683472"
       fy="410.30634"
       fx="433.81763"
       cy="410.30634"
       cx="433.81763"
       gradientTransform="matrix(1,0,0,1.6771938,0,-277.8569)"
       gradientUnits="userSpaceOnUse"
       id="radialGradient4100"
       xlink:href="#linearGradient4053"
       inkscape:collect="always" />
    <radialGradient
       r="114.50391"
       fy="362.45987"
       fx="443.09653"
       cy="362.45987"
       cx="443.09653"
       gradientTransform="matrix(-0.01481113,-0.15801233,0.32889211,-0.03082831,216.7309,444.45178)"
       gradientUnits="userSpaceOnUse"
       id="radialGradient4131"
       xlink:href="#linearGradient3912-3-2-2"
       inkscape:collect="always" />
    <linearGradient
       id="linearGradient3912-3-2-2">
      <stop
         style="stop-color:#c3e1ff;stop-opacity:1;"
         offset="0"
         id="stop3914-4-3-2" />
      <stop
         style="stop-color:#2a5879;stop-opacity:1;"
         offset="1"
         id="stop3916-1-3-4" />
    </linearGradient>
    <radialGradient
       inkscape:collect="always"
       xlink:href="#linearGradient3912-4"
       id="radialGradient3271"
       gradientUnits="userSpaceOnUse"
       gradientTransform="matrix(-0.2335745,0.41825831,-0.47252631,-0.26388023,659.82539,463.42541)"
       cx="377.64655"
       cy="689.36267"
       fx="377.64655"
       fy="689.36267"
       r="145.37917" />
    <linearGradient
       id="linearGradient3912-4">
      <stop
         style="stop-color:#c3e1ff;stop-opacity:1;"
         offset="0"
         id="stop3914-6" />
      <stop
         style="stop-color:#2a5879;stop-opacity:1;"
         offset="1"
         id="stop3916-0" />
    </linearGradient>
    <radialGradient
       inkscape:collect="always"
       xlink:href="#linearGradient3912-4"
       id="radialGradient4043"
       cx="251.17197"
       cy="416.90533"
       fx="251.17197"
       fy="416.90533"
       r="114.50391"
       gradientTransform="matrix(1.116599,1.1344798,-1.2390607,1.2195314,487.28463,-374.02662)"
       gradientUnits="userSpaceOnUse" />
    <linearGradient
       id="linearGradient4176">
      <stop
         style="stop-color:#c3e1ff;stop-opacity:1;"
         offset="0"
         id="stop4178" />
      <stop
         style="stop-color:#2a5879;stop-opacity:1;"
         offset="1"
         id="stop4180" />
    </linearGradient>
    <radialGradient
       inkscape:collect="always"
       xlink:href="#linearGradient3912-3"
       id="radialGradient4080"
       gradientUnits="userSpaceOnUse"
       gradientTransform="matrix(0.10900018,0.11535262,-0.12598629,0.11904823,257.61344,297.47468)"
       cx="251.17197"
       cy="416.90533"
       fx="251.17197"
       fy="416.90533"
       r="114.50391" />
    <linearGradient
       id="linearGradient3912-3">
      <stop
         style="stop-color:#c3e1ff;stop-opacity:1;"
         offset="0"
         id="stop3914-4" />
      <stop
         style="stop-color:#2a5879;stop-opacity:1;"
         offset="1"
         id="stop3916-1-0" />
    </linearGradient>
    <radialGradient
       r="114.50391"
       fy="385.83649"
       fx="256.96494"
       cy="385.83649"
       cx="256.96494"
       gradientTransform="matrix(0.10900018,0.11535262,-0.12598629,0.11904823,229.32102,299.3093)"
       gradientUnits="userSpaceOnUse"
       id="radialGradient4097"
       xlink:href="#linearGradient3912-3-2"
       inkscape:collect="always" />
    <linearGradient
       id="linearGradient3912-3-2">
      <stop
         style="stop-color:#c3e1ff;stop-opacity:1;"
         offset="0"
         id="stop3914-4-3" />
      <stop
         style="stop-color:#2a5879;stop-opacity:1;"
         offset="1"
         id="stop3916-1-3" />
    </linearGradient>
    <radialGradient
       r="114.50391"
       fy="385.83649"
       fx="256.96494"
       cy="385.83649"
       cx="256.96494"
       gradientTransform="matrix(0.10900018,0.11535262,-0.12598629,0.11904823,229.32102,299.3093)"
       gradientUnits="userSpaceOnUse"
       id="radialGradient4196"
       xlink:href="#linearGradient3912-3-2"
       inkscape:collect="always" />
    <radialGradient
       r="114.50391"
       fy="362.45987"
       fx="443.09653"
       cy="362.45987"
       cx="443.09653"
       gradientTransform="matrix(-0.01481113,-0.15801233,0.32889211,-0.03082831,216.7309,444.45178)"
       gradientUnits="userSpaceOnUse"
       id="radialGradient4131-2"
       xlink:href="#linearGradient3912-3-2-2-1"
       inkscape:collect="always" />
    <linearGradient
       id="linearGradient3912-3-2-2-1">
      <stop
         style="stop-color:#c3e1ff;stop-opacity:1;"
         offset="0"
         id="stop3914-4-3-2-1" />
      <stop
         style="stop-color:#2a5879;stop-opacity:1;"
         offset="1"
         id="stop3916-1-3-4-5" />
    </linearGradient>
    <radialGradient
       inkscape:collect="always"
       xlink:href="#linearGradient3912-4-9"
       id="radialGradient3271-8"
       gradientUnits="userSpaceOnUse"
       gradientTransform="matrix(-0.2335745,0.41825831,-0.47252631,-0.26388023,659.82539,463.42541)"
       cx="377.64655"
       cy="689.36267"
       fx="377.64655"
       fy="689.36267"
       r="145.37917" />
    <linearGradient
       id="linearGradient3912-4-9">
      <stop
         style="stop-color:#c3e1ff;stop-opacity:1;"
         offset="0"
         id="stop3914-6-2" />
      <stop
         style="stop-color:#2a5879;stop-opacity:1;"
         offset="1"
         id="stop3916-0-1" />
    </linearGradient>
    <radialGradient
       inkscape:collect="always"
       xlink:href="#linearGradient3912-4-9"
       id="radialGradient4043-1"
       cx="251.17197"
       cy="416.90533"
       fx="251.17197"
       fy="416.90533"
       r="114.50391"
       gradientTransform="matrix(1.116599,1.1344798,-1.2390607,1.2195314,487.28463,-374.02662)"
       gradientUnits="userSpaceOnUse" />
    <linearGradient
       id="linearGradient3229">
      <stop
         style="stop-color:#c3e1ff;stop-opacity:1;"
         offset="0"
         id="stop3231" />
      <stop
         style="stop-color:#2a5879;stop-opacity:1;"
         offset="1"
         id="stop3233" />
    </linearGradient>
    <radialGradient
       inkscape:collect="always"
       xlink:href="#linearGradient3912-3-0"
       id="radialGradient4080-0"
       gradientUnits="userSpaceOnUse"
       gradientTransform="matrix(0.10900018,0.11535262,-0.12598629,0.11904823,257.61344,297.47468)"
       cx="251.17197"
       cy="416.90533"
       fx="251.17197"
       fy="416.90533"
       r="114.50391" />
    <linearGradient
       id="linearGradient3912-3-0">
      <stop
         style="stop-color:#c3e1ff;stop-opacity:1;"
         offset="0"
         id="stop3914-4-8" />
      <stop
         style="stop-color:#2a5879;stop-opacity:1;"
         offset="1"
         id="stop3916-1-0-4" />
    </linearGradient>
    <radialGradient
       r="114.50391"
       fy="385.83649"
       fx="256.96494"
       cy="385.83649"
       cx="256.96494"
       gradientTransform="matrix(0.10900018,0.11535262,-0.12598629,0.11904823,229.32102,299.3093)"
       gradientUnits="userSpaceOnUse"
       id="radialGradient4196-4"
       xlink:href="#linearGradient3912-3-2-9"
       inkscape:collect="always" />
    <linearGradient
       id="linearGradient3912-3-2-9">
      <stop
         style="stop-color:#c3e1ff;stop-opacity:1;"
         offset="0"
         id="stop3914-4-3-6" />
      <stop
         style="stop-color:#2a5879;stop-opacity:1;"
         offset="1"
         id="stop3916-1-3-9" />
    </linearGradient>
    <radialGradient
       r="114.50391"
       fy="385.83649"
       fx="256.96494"
       cy="385.83649"
       cx="256.96494"
       gradientTransform="matrix(0.10900018,0.11535262,-0.12598629,0.11904823,229.32102,299.3093)"
       gradientUnits="userSpaceOnUse"
       id="radialGradient3249"
       xlink:href="#linearGradient3912-3-2-9"
       inkscape:collect="always" />
    <radialGradient
       r="114.50391"
       fy="362.45987"
       fx="443.09653"
       cy="362.45987"
       cx="443.09653"
       gradientTransform="matrix(-0.01481113,-0.15801233,0.32889211,-0.03082831,216.7309,444.45178)"
       gradientUnits="userSpaceOnUse"
       id="radialGradient4131-4"
       xlink:href="#linearGradient3912-3-2-2-6"
       inkscape:collect="always" />
    <linearGradient
       id="linearGradient3912-3-2-2-6">
      <stop
         style="stop-color:#c3e1ff;stop-opacity:1;"
         offset="0"
         id="stop3914-4-3-2-5" />
      <stop
         style="stop-color:#2a5879;stop-opacity:1;"
         offset="1"
         id="stop3916-1-3-4-6" />
    </linearGradient>
    <radialGradient
       inkscape:collect="always"
       xlink:href="#linearGradient3912-4-7"
       id="radialGradient3271-89"
       gradientUnits="userSpaceOnUse"
       gradientTransform="matrix(-0.2335745,0.41825831,-0.47252631,-0.26388023,659.82539,463.42541)"
       cx="377.64655"
       cy="689.36267"
       fx="377.64655"
       fy="689.36267"
       r="145.37917" />
    <linearGradient
       id="linearGradient3912-4-7">
      <stop
         style="stop-color:#c3e1ff;stop-opacity:1;"
         offset="0"
         id="stop3914-6-24" />
      <stop
         style="stop-color:#2a5879;stop-opacity:1;"
         offset="1"
         id="stop3916-0-6" />
    </linearGradient>
    <radialGradient
       inkscape:collect="always"
       xlink:href="#linearGradient3912-4-7"
       id="radialGradient4043-18"
       cx="251.17197"
       cy="416.90533"
       fx="251.17197"
       fy="416.90533"
       r="114.50391"
       gradientTransform="matrix(1.116599,1.1344798,-1.2390607,1.2195314,487.28463,-374.02662)"
       gradientUnits="userSpaceOnUse" />
    <linearGradient
       id="linearGradient3229-9">
      <stop
         style="stop-color:#c3e1ff;stop-opacity:1;"
         offset="0"
         id="stop3231-3" />
      <stop
         style="stop-color:#2a5879;stop-opacity:1;"
         offset="1"
         id="stop3233-8" />
    </linearGradient>
    <radialGradient
       inkscape:collect="always"
       xlink:href="#linearGradient3912-3-5"
       id="radialGradient4080-01"
       gradientUnits="userSpaceOnUse"
       gradientTransform="matrix(0.10900018,0.11535262,-0.12598629,0.11904823,257.61344,297.47468)"
       cx="251.17197"
       cy="416.90533"
       fx="251.17197"
       fy="416.90533"
       r="114.50391" />
    <linearGradient
       id="linearGradient3912-3-5">
      <stop
         style="stop-color:#c3e1ff;stop-opacity:1;"
         offset="0"
         id="stop3914-4-4" />
      <stop
         style="stop-color:#2a5879;stop-opacity:1;"
         offset="1"
         id="stop3916-1-0-0" />
    </linearGradient>
    <radialGradient
       r="114.50391"
       fy="385.83649"
       fx="256.96494"
       cy="385.83649"
       cx="256.96494"
       gradientTransform="matrix(0.10900018,0.11535262,-0.12598629,0.11904823,229.32102,299.3093)"
       gradientUnits="userSpaceOnUse"
       id="radialGradient4196-3"
       xlink:href="#linearGradient3912-3-2-6"
       inkscape:collect="always" />
    <linearGradient
       id="linearGradient3912-3-2-6">
      <stop
         style="stop-color:#c3e1ff;stop-opacity:1;"
         offset="0"
         id="stop3914-4-3-8" />
      <stop
         style="stop-color:#2a5879;stop-opacity:1;"
         offset="1"
         id="stop3916-1-3-42" />
    </linearGradient>
    <radialGradient
       r="114.50391"
       fy="385.83649"
       fx="256.96494"
       cy="385.83649"
       cx="256.96494"
       gradientTransform="matrix(0.10900018,0.11535262,-0.12598629,0.11904823,229.32102,299.3093)"
       gradientUnits="userSpaceOnUse"
       id="radialGradient3249-2"
       xlink:href="#linearGradient3912-3-2-6"
       inkscape:collect="always" />
    <radialGradient
       inkscape:collect="always"
       xlink:href="#linearGradient3978"
       id="radialGradient3229"
       gradientUnits="userSpaceOnUse"
       gradientTransform="matrix(-0.27679557,0.49821581,-0.5462972,-0.30350832,847.86279,640.11529)"
       cx="390.57013"
       cy="639.18427"
       fx="390.57013"
       fy="639.18427"
       r="145.37917" />
    <linearGradient
       inkscape:collect="always"
       xlink:href="#linearGradient3912"
       id="linearGradient3231"
       gradientUnits="userSpaceOnUse"
       x1="301.07141"
       y1="567.005"
       x2="260.04135"
       y2="413.87875" />
    <radialGradient
       inkscape:collect="always"
       xlink:href="#linearGradient3885"
       id="radialGradient3233"
       gradientUnits="userSpaceOnUse"
       gradientTransform="matrix(0.70911505,-0.14524364,0.10770156,0.52582543,70.515226,258.94756)"
       cx="399.32474"
       cy="423.78525"
       fx="399.32474"
       fy="423.78525"
       r="138.9874" />
    <radialGradient
       inkscape:collect="always"
       xlink:href="#linearGradient4076"
       id="radialGradient3235"
       gradientUnits="userSpaceOnUse"
       gradientTransform="matrix(-0.64381014,0.00562089,-0.01594075,-1.825834,820.52376,2005.7361)"
       cx="495.08655"
       cy="720.58246"
       fx="495.08655"
       fy="720.58246"
       r="30.06176" />
    <radialGradient
       inkscape:collect="always"
       xlink:href="#linearGradient4076-8"
       id="radialGradient3237"
       gradientUnits="userSpaceOnUse"
       gradientTransform="matrix(-0.49955375,0.09897502,-0.13700693,-0.69151119,828.95306,1053.669)"
       cx="505.10614"
       cy="710.47253"
       fx="505.10614"
       fy="710.47253"
       r="30.06176" />
  </defs>
  <sodipodi:namedview
     id="base"
     pagecolor="#ffffff"
     bordercolor="#666666"
     borderopacity="1.0"
     inkscape:pageopacity="0.0"
     inkscape:pageshadow="2"
     inkscape:zoom="0.98994949"
     inkscape:cx="432.84259"
     inkscape:cy="167.07084"
     inkscape:document-units="px"
     inkscape:current-layer="layer1"
     showgrid="false"
     inkscape:window-width="1440"
     inkscape:window-height="876"
     inkscape:window-x="0"
     inkscape:window-y="24"
     inkscape:window-maximized="1"
     fit-margin-top="0"
     fit-margin-left="0"
     fit-margin-right="0"
     fit-margin-bottom="0" />
  <metadata
     id="metadata3287">
    <rdf:RDF>
      <cc:Work
         rdf:about="">
        <dc:format>image/svg+xml</dc:format>
        <dc:type
           rdf:resource="http://purl.org/dc/dcmitype/StillImage" />
        <dc:title />
      </cc:Work>
    </rdf:RDF>
  </metadata>
  <g
     inkscape:label="Calque 1"
     inkscape:groupmode="layer"
     id="layer1"
     transform="translate(-107.4328,-418.74653)">
    <rect
       style="fill:#c3e1ff;fill-opacity:1;stroke:#000000;stroke-width:0.1;stroke-linecap:round;stroke-linejoin:round;stroke-miterlimit:4;stroke-opacity:1;stroke-dasharray:none;stroke-dashoffset:0"
       id="rect3382"
       width="222.86519"
       height="66.543884"
       x="215.11534"
       y="654.29028" />
    <text
       xml:space="preserve"
       style="font-size:16px;font-style:normal;font-variant:normal;font-weight:normal;font-stretch:normal;text-align:center;line-height:125%;letter-spacing:0px;word-spacing:0px;text-anchor:middle;fill:#000000;fill-opacity:1;stroke:none;font-family:Arial;-inkscape-font-specification:Arial"
       x="329.19458"
       y="697.49603"
       id="text4152-1"
       sodipodi:linespacing="125%"><tspan
         sodipodi:role="line"
         id="tspan4154-7"
         x="329.19458"
         y="697.49603">Rendering Engine</tspan></text>
    <rect
       style="fill:#c3e1ff;fill-opacity:1;stroke:#000000;stroke-width:0.1;stroke-linecap:round;stroke-linejoin:round;stroke-miterlimit:4;stroke-opacity:1;stroke-dasharray:none;stroke-dashoffset:0"
       id="rect3382-6"
       width="571.3678"
       height="217.05661"
       x="215.11534"
       y="423.83386" />
    <rect
       style="fill:#2a5879;fill-opacity:1;stroke:#000000;stroke-width:0.1;stroke-linecap:round;stroke-linejoin:round;stroke-miterlimit:4;stroke-opacity:1;stroke-dasharray:none;stroke-dashoffset:0"
       id="rect4538"
       width="555"
       height="58.571411"
       x="222.85715"
       y="572.93359" />
    <text
       xml:space="preserve"
       style="font-size:16px;font-style:normal;font-variant:normal;font-weight:normal;font-stretch:normal;text-align:center;line-height:125%;letter-spacing:0px;word-spacing:0px;text-anchor:middle;fill:#ffffff;fill-opacity:1;stroke:none;font-family:Arial;-inkscape-font-specification:Arial"
       x="562.01337"
       y="614.36218"
       id="text4540"
       sodipodi:linespacing="125%"><tspan
         sodipodi:role="line"
         id="tspan4542"
         x="562.01337"
         y="614.36218">Environment Model for Agent-based Simulation</tspan></text>
    <path
       style="fill:#ffffff;fill-opacity:1;stroke:#808080;stroke-width:1.19921231;stroke-linejoin:round;visibility:visible"
       inkscape:connector-curvature="0"
       id="path180-2"
       d="m 345.20409,601.65774 0,57.83177 14.44732,0 -28.93713,19.29141 -28.93712,-19.29141 14.48981,0 0,-57.83177 28.93712,0"
       inkscape:transform-center-x="145"
       inkscape:transform-center-y="17.857145" />
    <path
       style="fill:none;stroke:#808080;stroke-width:1.19921231;stroke-linejoin:round;visibility:visible"
       inkscape:connector-curvature="0"
       id="path182-5"
       d="m 359.65141,601.65773 0,0"
       inkscape:transform-center-x="116.06288"
       inkscape:transform-center-y="-20.70445" />
    <path
       style="fill:none;stroke:#808080;stroke-width:1.19921231;stroke-linejoin:round;visibility:visible"
       inkscape:connector-curvature="0"
       id="path184-5"
       d="m 301.77716,678.78091 0,0"
       inkscape:transform-center-x="173.93713"
       inkscape:transform-center-y="56.41873" />
    <rect
       style="fill:none;stroke:none;visibility:visible"
       id="rect186-4"
       height="57.874252"
       width="77.123177"
       y="-359.60895"
       x="601.65778"
       inkscape:transform-center-x="145.04248"
       inkscape:transform-center-y="17.857148"
       transform="matrix(0,1,-1,0,0,0)" />
    <text
       xml:space="preserve"
       style="font-size:12px;font-style:normal;font-variant:normal;font-weight:normal;font-stretch:normal;line-height:125%;letter-spacing:0px;word-spacing:0px;fill:#000000;fill-opacity:1;stroke:none;font-family:Arial;-inkscape-font-specification:Arial"
       x="348.57141"
       y="650.93359"
       id="text4750"
       sodipodi:linespacing="125%"><tspan
         sodipodi:role="line"
         id="tspan4752"
         x="348.57141"
         y="650.93359">Changes in the world's state</tspan></text>
    <g
       id="g4662"
       transform="translate(38.041824,0.51745302)">
      <rect
         y="553.0423"
         x="348.24731"
         height="30.462006"
         width="78.382149"
         id="rect3380"
         style="fill:url(#linearGradient3953);fill-opacity:1;stroke:#000000;stroke-width:0.5;stroke-linecap:round;stroke-linejoin:round;stroke-miterlimit:4;stroke-opacity:1;stroke-dasharray:none;stroke-dashoffset:0" />
      <text
         sodipodi:linespacing="125%"
         id="text4602"
         y="573.79077"
         x="387.59375"
         style="font-size:16px;font-style:normal;font-variant:normal;font-weight:normal;font-stretch:normal;text-align:center;line-height:125%;letter-spacing:0px;word-spacing:0px;text-anchor:middle;fill:#000000;fill-opacity:1;stroke:none;font-family:Arial;-inkscape-font-specification:Arial"
         xml:space="preserve"><tspan
           y="573.79077"
           x="387.59375"
           id="tspan4604"
           sodipodi:role="line">Body</tspan></text>
    </g>
    <rect
       style="fill:#f7f8ae;fill-opacity:1;stroke:#000000;stroke-width:0.5;stroke-linecap:round;stroke-linejoin:round;stroke-miterlimit:4;stroke-opacity:1;stroke-dasharray:none;stroke-dashoffset:0"
       id="rect3380-24-5-0"
       width="78.382141"
       height="108.49626"
       x="386.28915"
       y="445.17294" />
    <text
       xml:space="preserve"
       style="font-size:16px;font-style:normal;font-variant:normal;font-weight:normal;font-stretch:normal;text-align:center;line-height:125%;letter-spacing:0px;word-spacing:0px;text-anchor:middle;fill:#000000;fill-opacity:1;stroke:none;font-family:Arial;-inkscape-font-specification:Arial"
       x="426.44916"
       y="532.20673"
       id="text3056"
       sodipodi:linespacing="125%"><tspan
         sodipodi:role="line"
         id="tspan3058"
         x="426.44916"
         y="532.20673">Agent<tspan
   style="font-size:65.00091553%;text-align:center;text-anchor:middle;baseline-shift:sub"
   id="tspan3060">1</tspan></tspan></text>
    <g
       transform="translate(187.09345,0.51745302)"
       id="g4662-7">
      <rect
         y="553.0423"
         x="348.24731"
         height="30.462006"
         width="78.382149"
         id="rect3380-2"
         style="fill:url(#linearGradient3955);fill-opacity:1;stroke:#000000;stroke-width:0.5;stroke-linecap:round;stroke-linejoin:round;stroke-miterlimit:4;stroke-opacity:1;stroke-dasharray:none;stroke-dashoffset:0" />
      <text
         sodipodi:linespacing="125%"
         id="text4602-1"
         y="573.79077"
         x="387.59375"
         style="font-size:16px;font-style:normal;font-variant:normal;font-weight:normal;font-stretch:normal;text-align:center;line-height:125%;letter-spacing:0px;word-spacing:0px;text-anchor:middle;fill:#000000;fill-opacity:1;stroke:none;font-family:Arial;-inkscape-font-specification:Arial"
         xml:space="preserve"><tspan
           y="573.79077"
           x="387.59375"
           id="tspan4604-5"
           sodipodi:role="line">Body</tspan></text>
    </g>
    <rect
       style="fill:#f7f8ae;fill-opacity:1;stroke:#000000;stroke-width:0.5;stroke-linecap:round;stroke-linejoin:round;stroke-miterlimit:4;stroke-opacity:1;stroke-dasharray:none;stroke-dashoffset:0"
       id="rect3380-24-5-0-6"
       width="78.382141"
       height="108.49626"
       x="535.34076"
       y="445.17294" />
    <text
       xml:space="preserve"
       style="font-size:16px;font-style:normal;font-variant:normal;font-weight:normal;font-stretch:normal;text-align:center;line-height:125%;letter-spacing:0px;word-spacing:0px;text-anchor:middle;fill:#000000;fill-opacity:1;stroke:none;font-family:Arial;-inkscape-font-specification:Arial"
       x="574.82031"
       y="532.20673"
       id="text3056-1"
       sodipodi:linespacing="125%"><tspan
         sodipodi:role="line"
         id="tspan3058-0"
         x="574.82031"
         y="532.20673">Agent<tspan
   style="font-size:65.00091553%;text-align:center;text-anchor:middle;baseline-shift:sub"
   id="tspan3060-7">2</tspan></tspan></text>
    <rect
       style="fill:#f7f8ae;fill-opacity:1;stroke:#000000;stroke-width:0.5;stroke-linecap:round;stroke-linejoin:round;stroke-miterlimit:4;stroke-opacity:1;stroke-dasharray:none;stroke-dashoffset:0"
       id="rect3380-24-5-0-68"
       width="78.382141"
       height="108.49626"
       x="684.3924"
       y="445.17294" />
    <g
       transform="translate(336.14509,0.51745302)"
       id="g4662-6">
      <rect
         y="553.0423"
         x="348.24731"
         height="30.462006"
         width="78.382149"
         id="rect3380-0"
         style="fill:url(#linearGradient3951);fill-opacity:1;stroke:#000000;stroke-width:0.5;stroke-linecap:round;stroke-linejoin:round;stroke-miterlimit:4;stroke-opacity:1;stroke-dasharray:none;stroke-dashoffset:0" />
      <text
         sodipodi:linespacing="125%"
         id="text4602-8"
         y="573.79077"
         x="387.59375"
         style="font-size:16px;font-style:normal;font-variant:normal;font-weight:normal;font-stretch:normal;text-align:center;line-height:125%;letter-spacing:0px;word-spacing:0px;text-anchor:middle;fill:#000000;fill-opacity:1;stroke:none;font-family:Arial;-inkscape-font-specification:Arial"
         xml:space="preserve"><tspan
           y="573.79077"
           x="387.59375"
           id="tspan4604-8"
           sodipodi:role="line">Body</tspan></text>
    </g>
    <text
       xml:space="preserve"
       style="font-size:16px;font-style:normal;font-variant:normal;font-weight:normal;font-stretch:normal;text-align:center;line-height:125%;letter-spacing:0px;word-spacing:0px;text-anchor:middle;fill:#000000;fill-opacity:1;stroke:none;font-family:Arial;-inkscape-font-specification:Arial"
       x="723.83392"
       y="532.20673"
       id="text3056-6"
       sodipodi:linespacing="125%"><tspan
         sodipodi:role="line"
         id="tspan3058-6"
         x="723.83392"
         y="532.20673">Agent<tspan
   style="font-size:65.00091553%;text-align:center;text-anchor:middle;baseline-shift:sub"
   id="tspan3060-1">3</tspan></tspan></text>
    <g
       transform="translate(-111.00982,0.51745302)"
       id="g4662-66">
      <rect
         y="553.0423"
         x="348.24731"
         height="30.462006"
         width="78.382149"
         id="rect3380-24"
         style="fill:url(#linearGradient4612-2);fill-opacity:1;stroke:#000000;stroke-width:0.5;stroke-linecap:round;stroke-linejoin:round;stroke-miterlimit:4;stroke-opacity:1;stroke-dasharray:none;stroke-dashoffset:0" />
      <text
         sodipodi:linespacing="125%"
         id="text4602-0"
         y="573.79077"
         x="387.59375"
         style="font-size:16px;font-style:normal;font-variant:normal;font-weight:normal;font-stretch:normal;text-align:center;line-height:125%;letter-spacing:0px;word-spacing:0px;text-anchor:middle;fill:#000000;fill-opacity:1;stroke:none;font-family:Arial;-inkscape-font-specification:Arial"
         xml:space="preserve"><tspan
           y="573.79077"
           x="387.59375"
           id="tspan4604-9"
           sodipodi:role="line">Avatar</tspan></text>
    </g>
    <rect
       style="fill:#f7f8ae;fill-opacity:1;stroke:#000000;stroke-width:0.5;stroke-linecap:round;stroke-linejoin:round;stroke-miterlimit:4;stroke-opacity:1;stroke-dasharray:none;stroke-dashoffset:0"
       id="rect3380-24-5"
       width="78.382141"
       height="108.49626"
       x="237.23749"
       y="445.17294" />
    <text
       xml:space="preserve"
       style="font-size:16px;font-style:normal;font-variant:normal;font-weight:normal;font-stretch:normal;text-align:center;line-height:125%;letter-spacing:0px;word-spacing:0px;text-anchor:middle;fill:#000000;fill-opacity:1;stroke:none;font-family:Arial;-inkscape-font-specification:Arial"
       x="276.2645"
       y="523.79657"
       id="text3097"
       sodipodi:linespacing="125%"><tspan
         sodipodi:role="line"
         id="tspan3099"
         x="276.2645"
         y="523.79657">Immersed</tspan><tspan
         sodipodi:role="line"
         x="276.2645"
         y="543.79657"
         id="tspan3101">real user</tspan></text>
    <text
       xml:space="preserve"
       style="font-size:16px;font-style:normal;font-variant:normal;font-weight:normal;font-stretch:normal;text-align:center;line-height:125%;letter-spacing:0px;word-spacing:0px;text-anchor:middle;fill:#000000;fill-opacity:1;stroke:none;font-family:Arial;-inkscape-font-specification:Arial"
       x="144.10468"
       y="678.50421"
       id="text3103"
       sodipodi:linespacing="125%"><tspan
         sodipodi:role="line"
         id="tspan3105"
         x="144.10468"
         y="678.50421">Simulation</tspan><tspan
         sodipodi:role="line"
         x="144.10468"
         y="698.50421"
         id="tspan3107">supervisor</tspan></text>
    <path
       style="fill:#ffffff;fill-opacity:1;stroke:#808080;stroke-width:0.6925177;stroke-linejoin:round;visibility:visible"
       inkscape:connector-curvature="0"
       id="path180-9"
       d="m 179.75367,631.72103 29.16008,-16.27938 -4.06686,-7.28466 17.87283,9.1603 -1.5815,20.02119 -4.07881,-7.30609 -29.16008,16.27938 -8.14566,-14.59074" />
    <path
       style="fill:none;stroke:#808080;stroke-width:0.6925177;stroke-linejoin:round;visibility:visible"
       inkscape:connector-curvature="0"
       id="path182-0"
       d="m 188.07873,642.7764 0,0" />
    <path
       style="fill:none;stroke:#808080;stroke-width:0.6925177;stroke-linejoin:round;visibility:visible"
       inkscape:connector-curvature="0"
       id="path184-3"
       d="m 232.61561,676.19746 0,0" />
    <rect
       style="fill:none;stroke:none;visibility:visible"
       id="rect186-1"
       height="33.421059"
       width="44.536873"
       y="642.80096"
       x="188.07874" />
    <text
       xml:space="preserve"
       style="font-size:16px;font-style:normal;font-variant:normal;font-weight:normal;font-stretch:normal;text-align:center;line-height:125%;letter-spacing:0px;word-spacing:0px;text-anchor:middle;fill:#000000;fill-opacity:1;stroke:none;font-family:Arial;-inkscape-font-specification:Arial"
       x="494.1723"
       y="719.03217"
       id="text3109"
       sodipodi:linespacing="125%"><tspan
         sodipodi:role="line"
         id="tspan3111"
         x="494.1723"
         y="719.03217">Visitor</tspan></text>
    <path
       style="fill:#ffffff;fill-opacity:1;stroke:#808080;stroke-width:0.6925177;stroke-linejoin:round;visibility:visible"
       inkscape:connector-curvature="0"
       id="path180-9-9"
       d="m 465.47363,678.40587 -33.39653,0 0,-8.343 -11.14035,16.71053 11.14035,16.71053 0,-8.36754 33.39653,0 0,-16.71052" />
    <g
       transform="matrix(0.08914089,0,0,0.08914089,454.42483,628.92219)"
       style="display:inline"
       id="g4118">
      <path
         sodipodi:nodetypes="ccccc"
         inkscape:connector-curvature="0"
         id="path3908-8"
         d="m 531.78572,558.79075 c 46.29702,39.91203 66.6391,97.77848 56.07142,169.64285 -32.26838,93.24948 -262.08706,93.05226 -278.92858,0.35715 -11.67283,-49.86006 0.62727,-139.46875 49.64286,-175.35715 46.6081,-34.12568 126.9237,-29.19798 173.2143,5.35715 z"
         style="fill:url(#radialGradient3229);fill-opacity:1;stroke:#000000;stroke-width:5;stroke-linecap:round;stroke-linejoin:round;stroke-miterlimit:4;stroke-opacity:1;stroke-dashoffset:0;display:inline" />
      <path
         sodipodi:nodetypes="cccc"
         inkscape:connector-curvature="0"
         id="path3908-8-3"
         d="m 499.42987,668.66146 c -29.35824,-17.04543 -56.06765,-52.31645 -82.5,-92.5 l 105.35715,-20.35715 c 3.82118,40.56222 -1.92756,84.19661 -22.85715,112.85715 z"
         style="fill:#ffffff;fill-opacity:1;stroke:#000000;stroke-width:5;stroke-linecap:round;stroke-linejoin:round;stroke-miterlimit:4;stroke-opacity:1;stroke-dashoffset:0;display:inline" />
      <path
         transform="translate(145,18.571429)"
         d="m 420.00001,469.14789 c 0,54.24225 -52.60655,98.21428 -117.50001,98.21428 -64.89346,0 -117.50001,-43.97203 -117.50001,-98.21428 0,-54.24225 52.60655,-98.21429 117.50001,-98.21429 64.89346,0 117.50001,43.97204 117.50001,98.21429 z"
         sodipodi:ry="98.214287"
         sodipodi:rx="117.50001"
         sodipodi:cy="469.14789"
         sodipodi:cx="302.5"
         id="path3908"
         style="fill:url(#linearGradient3231);fill-opacity:1;stroke:#000000;stroke-width:5;stroke-linecap:round;stroke-linejoin:round;stroke-miterlimit:4;stroke-opacity:1;stroke-dasharray:none;stroke-dashoffset:0"
         sodipodi:type="arc" />
      <path
         sodipodi:nodetypes="sccccs"
         inkscape:connector-curvature="0"
         id="rect3882"
         d="m 304.2857,440.21933 c -0.76918,-60.43588 20.4602,-127.42453 138.92857,-126.42858 65.8078,1.56177 127.76568,25.22045 133.21429,125 13.97309,82.88036 -156.19245,74.35935 -215.71429,37.85713 -6.06604,29.1993 -5.39307,47.90482 -27.14285,57.14286 -31.17366,-8.71657 -28.8698,-60.89165 -29.28572,-93.57141 z"
         style="fill:url(#radialGradient3233);fill-opacity:1;stroke:#000000;stroke-width:5;stroke-miterlimit:4;stroke-opacity:1;stroke-dasharray:none" />
      <path
         sodipodi:nodetypes="ccccc"
         inkscape:connector-curvature="0"
         id="rect4045-9"
         d="m 492.14286,647.71933 c 17.46279,-6.64196 38.63629,59.1586 40.71429,121.42856 -2.48973,15.27461 -5.97039,34.25378 -21.42858,35.00001 -14.81361,0.71512 -23.52392,-16.76878 -28.57142,-30.71429 -7.13133,-49.30485 -9.08328,-129.9577 9.28571,-125.71428 z"
         style="fill:url(#radialGradient3235);fill-opacity:1;stroke:#000000;stroke-width:5;stroke-linecap:round;stroke-linejoin:round;stroke-miterlimit:4;stroke-opacity:1;stroke-dashoffset:0;display:inline" />
      <path
         sodipodi:nodetypes="ccccc"
         inkscape:connector-curvature="0"
         id="rect4045-9-9"
         d="m 477.56176,587.94086 c 21.7485,8.35804 23.63629,9.87289 28.57143,32.85714 0.36741,15.9889 4.74389,24.96807 -13.57144,30.7143 -14.81361,0.71512 -21.38106,-10.34021 -26.42856,-24.28572 -2.84562,-20.01914 -6.94043,-23.52914 11.42857,-39.28572 z"
         style="fill:url(#radialGradient3237);fill-opacity:1;stroke:#000000;stroke-width:5;stroke-linecap:round;stroke-linejoin:round;stroke-miterlimit:4;stroke-opacity:1;stroke-dashoffset:0;display:inline" />
    </g>
    <g
       transform="matrix(0.08914089,0,0,0.08914089,234.69144,426.43129)"
       style="display:inline"
       id="g4118-9">
      <path
         sodipodi:nodetypes="ccccc"
         inkscape:connector-curvature="0"
         id="path3908-8-4"
         d="m 531.78572,558.79075 c 46.29702,39.91203 66.6391,97.77848 56.07142,169.64285 -32.26838,93.24948 -262.08706,93.05226 -278.92858,0.35715 -11.67283,-49.86006 0.62727,-139.46875 49.64286,-175.35715 46.6081,-34.12568 126.9237,-29.19798 173.2143,5.35715 z"
         style="fill:url(#radialGradient3986-7);fill-opacity:1;stroke:#000000;stroke-width:5;stroke-linecap:round;stroke-linejoin:round;stroke-miterlimit:4;stroke-opacity:1;stroke-dashoffset:0;display:inline" />
      <path
         sodipodi:nodetypes="cccc"
         inkscape:connector-curvature="0"
         id="path3908-8-3-0"
         d="m 499.42987,668.66146 c -29.35824,-17.04543 -56.06765,-52.31645 -82.5,-92.5 l 105.35715,-20.35715 c 3.82118,40.56222 -1.92756,84.19661 -22.85715,112.85715 z"
         style="fill:#ffffff;fill-opacity:1;stroke:#000000;stroke-width:5;stroke-linecap:round;stroke-linejoin:round;stroke-miterlimit:4;stroke-opacity:1;stroke-dashoffset:0;display:inline" />
      <path
         transform="translate(145,18.571429)"
         d="m 420.00001,469.14789 c 0,54.24225 -52.60655,98.21428 -117.50001,98.21428 -64.89346,0 -117.50001,-43.97203 -117.50001,-98.21428 0,-54.24225 52.60655,-98.21429 117.50001,-98.21429 64.89346,0 117.50001,43.97204 117.50001,98.21429 z"
         sodipodi:ry="98.214287"
         sodipodi:rx="117.50001"
         sodipodi:cy="469.14789"
         sodipodi:cx="302.5"
         id="path3908-0"
         style="fill:url(#linearGradient3918-1);fill-opacity:1;stroke:#000000;stroke-width:5;stroke-linecap:round;stroke-linejoin:round;stroke-miterlimit:4;stroke-opacity:1;stroke-dasharray:none;stroke-dashoffset:0"
         sodipodi:type="arc" />
      <path
         sodipodi:nodetypes="sccccs"
         inkscape:connector-curvature="0"
         id="rect3882-3"
         d="m 304.2857,440.21933 c -0.76918,-60.43588 20.4602,-127.42453 138.92857,-126.42858 65.8078,1.56177 127.76568,25.22045 133.21429,125 13.97309,82.88036 -156.19245,74.35935 -215.71429,37.85713 -6.06604,29.1993 -5.39307,47.90482 -27.14285,57.14286 -31.17366,-8.71657 -28.8698,-60.89165 -29.28572,-93.57141 z"
         style="fill:url(#radialGradient3901-1);fill-opacity:1;stroke:#000000;stroke-width:5;stroke-miterlimit:4;stroke-opacity:1;stroke-dasharray:none" />
      <path
         sodipodi:nodetypes="ccccc"
         inkscape:connector-curvature="0"
         id="rect4045-9-2"
         d="m 492.14286,647.71933 c 17.46279,-6.64196 38.63629,59.1586 40.71429,121.42856 -2.48973,15.27461 -5.97039,34.25378 -21.42858,35.00001 -14.81361,0.71512 -23.52392,-16.76878 -28.57142,-30.71429 -7.13133,-49.30485 -9.08328,-129.9577 9.28571,-125.71428 z"
         style="fill:url(#radialGradient4082-1);fill-opacity:1;stroke:#000000;stroke-width:5;stroke-linecap:round;stroke-linejoin:round;stroke-miterlimit:4;stroke-opacity:1;stroke-dashoffset:0;display:inline" />
      <path
         sodipodi:nodetypes="ccccc"
         inkscape:connector-curvature="0"
         id="rect4045-9-9-7"
         d="m 477.56176,587.94086 c 21.7485,8.35804 23.63629,9.87289 28.57143,32.85714 0.36741,15.9889 4.74389,24.96807 -13.57144,30.7143 -14.81361,0.71512 -21.38106,-10.34021 -26.42856,-24.28572 -2.84562,-20.01914 -6.94043,-23.52914 11.42857,-39.28572 z"
         style="fill:url(#radialGradient3148);fill-opacity:1;stroke:#000000;stroke-width:5;stroke-linecap:round;stroke-linejoin:round;stroke-miterlimit:4;stroke-opacity:1;stroke-dashoffset:0;display:inline" />
    </g>
    <g
       transform="matrix(0.38266168,0,0,0.38266168,-24.338488,468.66074)"
       style="display:inline"
       id="g4061">
      <path
         sodipodi:nodetypes="ccccc"
         inkscape:connector-curvature="0"
         id="path3908-8-4-2"
         d="m 464.24437,443.13418 c 13.76982,9.27208 11.65456,26.21607 11.24826,38.3364 -7.69786,19.38377 -59.07697,22.04476 -64.86394,-1.93248 -1.04053,-4.44457 -0.47981,-26.0038 11.21092,-38.66722 7.92326,-5.05677 33.98748,-0.86317 42.40476,2.2633 z"
         style="fill:url(#radialGradient4046);fill-opacity:1;stroke:#000000;stroke-width:0.44570446;stroke-linecap:round;stroke-linejoin:round;stroke-miterlimit:4;stroke-opacity:1;stroke-dashoffset:0;display:inline" />
      <path
         sodipodi:nodetypes="cccc"
         inkscape:connector-curvature="0"
         id="path3908-8-3-0-8"
         d="m 454.753,464.17815 c -5.83131,-0.62659 -13.39078,-13.05639 -15.74698,-16.63838 l 22.0702,-5.38609 c 0.34062,3.61575 0.72104,19.82679 -6.32322,22.02447 z"
         style="fill:#ffffff;fill-opacity:1;stroke:#000000;stroke-width:0.44570446;stroke-linecap:round;stroke-linejoin:round;stroke-miterlimit:4;stroke-opacity:1;stroke-dashoffset:0;display:inline" />
      <path
         transform="matrix(0.08914089,0,0,0.08914089,417.31958,382.12139)"
         d="m 610.30869,469.14789 c 0,156.02775 -137.81065,282.51324 -307.80869,282.51324 -169.99804,0 -307.8086853,-126.48549 -307.8086853,-282.51324 0,-156.02776 137.8106453,-282.51325 307.8086853,-282.51325 169.99804,0 307.80869,126.48549 307.80869,282.51325 z"
         sodipodi:ry="282.51324"
         sodipodi:rx="307.80869"
         sodipodi:cy="469.14789"
         sodipodi:cx="302.5"
         id="path3908-0-1"
         style="fill:url(#linearGradient3258);fill-opacity:1;stroke:#000000;stroke-width:5;stroke-linecap:round;stroke-linejoin:round;stroke-miterlimit:4;stroke-opacity:1;stroke-dasharray:none;stroke-dashoffset:0"
         sodipodi:type="arc" />
      <path
         sodipodi:nodetypes="cccccc"
         inkscape:connector-curvature="0"
         id="rect3882-3-6"
         d="m 406.75186,413.53938 c -0.69263,-9.72601 3.49765,-35.01632 35.61772,-34.25093 17.09405,-0.37102 34.88081,12.32097 33.08805,33.74478 -21.74329,4.88256 -31.04786,4.26539 -44.60905,-5.46422 -2.19697,14.51406 -9.6722,14.91419 -11.1321,28.95862 -7.64709,-1.73921 -13.28213,-7.58014 -12.96462,-22.98825 z"
         style="fill:url(#radialGradient4036);fill-opacity:1;stroke:#000000;stroke-width:0.44570446;stroke-miterlimit:4;stroke-opacity:1;stroke-dasharray:none" />
      <path
         sodipodi:nodetypes="ccccccccccc"
         inkscape:connector-curvature="0"
         id="path4048"
         d="m 433.39287,421.91574 c 0,2.4409 -1.00936,4.65072 -2.64127,6.25032 2.62774,5.48919 6.91299,5.67237 16.0761,5.54364 7.28688,-0.77439 7.3112,8.18062 -0.19253,7.68998 -13.66817,8.6e-4 -18.42577,-7.34108 -22.26016,-10.64465 -4.98042,0 -9.01786,-3.95749 -9.01786,-8.83929 0,-2.4409 1.00936,-4.65072 2.64127,-6.25031 -0.0769,-11.78194 -0.26601,-20.73276 9.29501,-34.84076 l 8.92488,-1.63113 c -10.57367,13.38672 -11.57299,20.04363 -11.8433,33.88292 5.07524,0.23684 8.94675,4.29313 9.01786,8.83928 z"
         style="fill:url(#radialGradient4100);fill-opacity:1;stroke:#000000;stroke-width:0.44600001;stroke-linecap:round;stroke-linejoin:round;stroke-miterlimit:4;stroke-opacity:1;stroke-dasharray:none;stroke-dashoffset:0" />
    </g>
    <g
       transform="matrix(0.23078671,0,0,0.23078671,361.43179,378.6263)"
       id="g4150">
      <path
         sodipodi:nodetypes="aaaaa"
         inkscape:connector-curvature="0"
         id="path3908-3-2-6"
         d="m 330.92001,374.61648 c 0.0253,-1.41517 0.64467,-3.12315 1.88512,-3.80477 8.54108,-4.69329 28.70256,-6.64895 29.07313,3.08961 0.3722,9.78153 -20.20905,9.85342 -28.88113,5.3134 -1.49004,-0.78006 -2.10716,-2.91664 -2.07712,-4.59824 z"
         style="fill:url(#radialGradient4131);fill-opacity:1;stroke:#000000;stroke-width:2.33100009;stroke-linecap:round;stroke-linejoin:round;stroke-miterlimit:4;stroke-opacity:1;stroke-dashoffset:0" />
      <path
         sodipodi:nodetypes="ccccc"
         inkscape:connector-curvature="0"
         id="path3908-8-30"
         d="m 322.81964,411.38367 c 21.58317,18.60656 31.06642,45.58327 26.13989,79.08566 -15.04317,43.4719 -122.18216,43.37996 -130.03349,0.1665 -5.44175,-23.24422 0.29243,-65.01882 23.14296,-81.7496 21.7282,-15.90903 59.17046,-13.61179 80.75064,2.49744 z"
         style="fill:url(#radialGradient3271);fill-opacity:1;stroke:#000000;stroke-width:2.33094597;stroke-linecap:round;stroke-linejoin:round;stroke-miterlimit:4;stroke-opacity:1;stroke-dashoffset:0;display:inline" />
      <path
         transform="matrix(0.46618918,0,0,0.46618918,142.50432,159.53927)"
         d="m 414.50391,469.14789 c 0,58.89635 -50.14586,106.64127 -112.00391,106.64127 -61.85805,0 -112.00391,-47.74492 -112.00391,-106.64127 0,-58.89635 50.14586,-106.64128 112.00391,-106.64128 61.85805,0 112.00391,47.74493 112.00391,106.64128 z"
         sodipodi:ry="106.64127"
         sodipodi:rx="112.00391"
         sodipodi:cy="469.14789"
         sodipodi:cx="302.5"
         id="path3908-37"
         style="fill:url(#radialGradient4043);fill-opacity:1;stroke:#000000;stroke-width:5;stroke-linecap:round;stroke-linejoin:round;stroke-miterlimit:4;stroke-opacity:1;stroke-dasharray:none;stroke-dashoffset:0"
         sodipodi:type="arc" />
      <path
         sodipodi:nodetypes="aaaaa"
         inkscape:connector-curvature="0"
         id="path3908-3"
         d="m 243.43653,379.84808 c 0.48006,4.64798 -2.40811,11.70861 -7.06369,12.10834 -4.63469,0.39794 -8.79198,-6.03111 -8.98384,-10.6789 -0.18136,-4.39333 3.24159,-10.50263 7.63113,-10.75983 4.18133,-0.245 7.98608,5.16405 8.4164,9.33039 z"
         style="fill:url(#radialGradient4080);fill-opacity:1;stroke:#000000;stroke-width:2.33100009;stroke-linecap:round;stroke-linejoin:round;stroke-miterlimit:4;stroke-opacity:1;stroke-dashoffset:0" />
      <path
         sodipodi:nodetypes="aaaaa"
         inkscape:connector-curvature="0"
         id="path3908-3-2"
         d="m 230.41197,382.21841 c -0.0253,1.41517 -0.64467,3.12315 -1.88512,3.80477 -8.54108,4.69329 -28.70256,6.64895 -29.07313,-3.08961 -0.3722,-9.78153 20.20905,-9.85342 28.88113,-5.3134 1.49004,0.78006 2.10716,2.91664 2.07712,4.59824 z"
         style="fill:url(#radialGradient4196);fill-opacity:1;stroke:#000000;stroke-width:2.33100009;stroke-linecap:round;stroke-linejoin:round;stroke-miterlimit:4;stroke-opacity:1;stroke-dashoffset:0" />
    </g>
    <g
       transform="matrix(0.23078671,0,0,0.23078671,509.08739,378.6263)"
       id="g4150-8">
      <path
         sodipodi:nodetypes="aaaaa"
         inkscape:connector-curvature="0"
         id="path3908-3-2-6-1"
         d="m 330.92001,374.61648 c 0.0253,-1.41517 0.64467,-3.12315 1.88512,-3.80477 8.54108,-4.69329 28.70256,-6.64895 29.07313,3.08961 0.3722,9.78153 -20.20905,9.85342 -28.88113,5.3134 -1.49004,-0.78006 -2.10716,-2.91664 -2.07712,-4.59824 z"
         style="fill:url(#radialGradient4131-2);fill-opacity:1;stroke:#000000;stroke-width:2.33100009;stroke-linecap:round;stroke-linejoin:round;stroke-miterlimit:4;stroke-opacity:1;stroke-dashoffset:0" />
      <path
         sodipodi:nodetypes="ccccc"
         inkscape:connector-curvature="0"
         id="path3908-8-30-6"
         d="m 322.81964,411.38367 c 21.58317,18.60656 31.06642,45.58327 26.13989,79.08566 -15.04317,43.4719 -122.18216,43.37996 -130.03349,0.1665 -5.44175,-23.24422 0.29243,-65.01882 23.14296,-81.7496 21.7282,-15.90903 59.17046,-13.61179 80.75064,2.49744 z"
         style="fill:url(#radialGradient3271-8);fill-opacity:1;stroke:#000000;stroke-width:2.33094597;stroke-linecap:round;stroke-linejoin:round;stroke-miterlimit:4;stroke-opacity:1;stroke-dashoffset:0;display:inline" />
      <path
         transform="matrix(0.46618918,0,0,0.46618918,142.50432,159.53927)"
         d="m 414.50391,469.14789 c 0,58.89635 -50.14586,106.64127 -112.00391,106.64127 -61.85805,0 -112.00391,-47.74492 -112.00391,-106.64127 0,-58.89635 50.14586,-106.64128 112.00391,-106.64128 61.85805,0 112.00391,47.74493 112.00391,106.64128 z"
         sodipodi:ry="106.64127"
         sodipodi:rx="112.00391"
         sodipodi:cy="469.14789"
         sodipodi:cx="302.5"
         id="path3908-37-4"
         style="fill:url(#radialGradient4043-1);fill-opacity:1;stroke:#000000;stroke-width:5;stroke-linecap:round;stroke-linejoin:round;stroke-miterlimit:4;stroke-opacity:1;stroke-dasharray:none;stroke-dashoffset:0"
         sodipodi:type="arc" />
      <path
         sodipodi:nodetypes="aaaaa"
         inkscape:connector-curvature="0"
         id="path3908-3-1"
         d="m 243.43653,379.84808 c 0.48006,4.64798 -2.40811,11.70861 -7.06369,12.10834 -4.63469,0.39794 -8.79198,-6.03111 -8.98384,-10.6789 -0.18136,-4.39333 3.24159,-10.50263 7.63113,-10.75983 4.18133,-0.245 7.98608,5.16405 8.4164,9.33039 z"
         style="fill:url(#radialGradient4080-0);fill-opacity:1;stroke:#000000;stroke-width:2.33100009;stroke-linecap:round;stroke-linejoin:round;stroke-miterlimit:4;stroke-opacity:1;stroke-dashoffset:0" />
      <path
         sodipodi:nodetypes="aaaaa"
         inkscape:connector-curvature="0"
         id="path3908-3-2-9"
         d="m 230.41197,382.21841 c -0.0253,1.41517 -0.64467,3.12315 -1.88512,3.80477 -8.54108,4.69329 -28.70256,6.64895 -29.07313,-3.08961 -0.3722,-9.78153 20.20905,-9.85342 28.88113,-5.3134 1.49004,0.78006 2.10716,2.91664 2.07712,4.59824 z"
         style="fill:url(#radialGradient3249);fill-opacity:1;stroke:#000000;stroke-width:2.33100009;stroke-linecap:round;stroke-linejoin:round;stroke-miterlimit:4;stroke-opacity:1;stroke-dashoffset:0" />
    </g>
    <g
       transform="matrix(0.23078671,0,0,0.23078671,658.3731,378.6263)"
       id="g4150-5">
      <path
         sodipodi:nodetypes="aaaaa"
         inkscape:connector-curvature="0"
         id="path3908-3-2-6-4"
         d="m 330.92001,374.61648 c 0.0253,-1.41517 0.64467,-3.12315 1.88512,-3.80477 8.54108,-4.69329 28.70256,-6.64895 29.07313,3.08961 0.3722,9.78153 -20.20905,9.85342 -28.88113,5.3134 -1.49004,-0.78006 -2.10716,-2.91664 -2.07712,-4.59824 z"
         style="fill:url(#radialGradient4131-4);fill-opacity:1;stroke:#000000;stroke-width:2.33100009;stroke-linecap:round;stroke-linejoin:round;stroke-miterlimit:4;stroke-opacity:1;stroke-dashoffset:0" />
      <path
         sodipodi:nodetypes="ccccc"
         inkscape:connector-curvature="0"
         id="path3908-8-30-8"
         d="m 322.81964,411.38367 c 21.58317,18.60656 31.06642,45.58327 26.13989,79.08566 -15.04317,43.4719 -122.18216,43.37996 -130.03349,0.1665 -5.44175,-23.24422 0.29243,-65.01882 23.14296,-81.7496 21.7282,-15.90903 59.17046,-13.61179 80.75064,2.49744 z"
         style="fill:url(#radialGradient3271-89);fill-opacity:1;stroke:#000000;stroke-width:2.33094597;stroke-linecap:round;stroke-linejoin:round;stroke-miterlimit:4;stroke-opacity:1;stroke-dashoffset:0;display:inline" />
      <path
         transform="matrix(0.46618918,0,0,0.46618918,142.50432,159.53927)"
         d="m 414.50391,469.14789 c 0,58.89635 -50.14586,106.64127 -112.00391,106.64127 -61.85805,0 -112.00391,-47.74492 -112.00391,-106.64127 0,-58.89635 50.14586,-106.64128 112.00391,-106.64128 61.85805,0 112.00391,47.74493 112.00391,106.64128 z"
         sodipodi:ry="106.64127"
         sodipodi:rx="112.00391"
         sodipodi:cy="469.14789"
         sodipodi:cx="302.5"
         id="path3908-37-5"
         style="fill:url(#radialGradient4043-18);fill-opacity:1;stroke:#000000;stroke-width:5;stroke-linecap:round;stroke-linejoin:round;stroke-miterlimit:4;stroke-opacity:1;stroke-dasharray:none;stroke-dashoffset:0"
         sodipodi:type="arc" />
      <path
         sodipodi:nodetypes="aaaaa"
         inkscape:connector-curvature="0"
         id="path3908-3-4"
         d="m 243.43653,379.84808 c 0.48006,4.64798 -2.40811,11.70861 -7.06369,12.10834 -4.63469,0.39794 -8.79198,-6.03111 -8.98384,-10.6789 -0.18136,-4.39333 3.24159,-10.50263 7.63113,-10.75983 4.18133,-0.245 7.98608,5.16405 8.4164,9.33039 z"
         style="fill:url(#radialGradient4080-01);fill-opacity:1;stroke:#000000;stroke-width:2.33100009;stroke-linecap:round;stroke-linejoin:round;stroke-miterlimit:4;stroke-opacity:1;stroke-dashoffset:0" />
      <path
         sodipodi:nodetypes="aaaaa"
         inkscape:connector-curvature="0"
         id="path3908-3-2-4"
         d="m 230.41197,382.21841 c -0.0253,1.41517 -0.64467,3.12315 -1.88512,3.80477 -8.54108,4.69329 -28.70256,6.64895 -29.07313,-3.08961 -0.3722,-9.78153 20.20905,-9.85342 28.88113,-5.3134 1.49004,0.78006 2.10716,2.91664 2.07712,4.59824 z"
         style="fill:url(#radialGradient3249-2);fill-opacity:1;stroke:#000000;stroke-width:2.33100009;stroke-linecap:round;stroke-linejoin:round;stroke-miterlimit:4;stroke-opacity:1;stroke-dashoffset:0" />
    </g>
    <path
       style="fill:#ffffff;fill-opacity:1;stroke:#808080;stroke-width:0.6925177;stroke-linejoin:round;visibility:visible"
       inkscape:connector-curvature="0"
       id="path180-9-8"
       d="m 179.75367,666.19121 29.16008,16.27938 -4.06686,7.28466 17.87283,-9.1603 -1.5815,-20.02119 -4.07881,7.30609 -29.16008,-16.27938 -8.14566,14.59074" />
  </g>
</svg>
