<?xml version="1.0" encoding="UTF-8" standalone="no"?>
<!-- Created with Inkscape (http://www.inkscape.org/) -->

<svg
   xmlns:dc="http://purl.org/dc/elements/1.1/"
   xmlns:cc="http://creativecommons.org/ns#"
   xmlns:rdf="http://www.w3.org/1999/02/22-rdf-syntax-ns#"
   xmlns:svg="http://www.w3.org/2000/svg"
   xmlns="http://www.w3.org/2000/svg"
   xmlns:sodipodi="http://sodipodi.sourceforge.net/DTD/sodipodi-0.dtd"
   xmlns:inkscape="http://www.inkscape.org/namespaces/inkscape"
   width="858.16943"
   height="177.94598"
   id="svg2"
   version="1.1"
   inkscape:version="0.92.3 (2405546, 2018-03-11)"
   sodipodi:docname="vehicle_behaviour.svg">
  <defs
     id="defs4">
    <marker
       inkscape:stockid="Arrow2Mstart"
       orient="auto"
       refY="0"
       refX="0"
       id="Arrow2Mstart"
       style="overflow:visible">
      <path
         id="path3867"
         style="fill-rule:evenodd;stroke-width:0.625;stroke-linejoin:round"
         d="M 8.7185878,4.0337352 -2.2072895,0.01601326 8.7185884,-4.0017078 c -1.7454984,2.3720609 -1.7354408,5.6174519 -6e-7,8.035443 z"
         transform="scale(0.6,0.6)"
         inkscape:connector-curvature="0" />
    </marker>
    <marker
       inkscape:stockid="Arrow2Mend"
       orient="auto"
       refY="0"
       refX="0"
       id="Arrow2Mend"
       style="overflow:visible">
      <path
         id="path3870"
         style="fill-rule:evenodd;stroke-width:0.625;stroke-linejoin:round"
         d="M 8.7185878,4.0337352 -2.2072895,0.01601326 8.7185884,-4.0017078 c -1.7454984,2.3720609 -1.7354408,5.6174519 -6e-7,8.035443 z"
         transform="scale(-0.6,-0.6)"
         inkscape:connector-curvature="0" />
    </marker>
  </defs>
  <sodipodi:namedview
     id="base"
     pagecolor="#ffffff"
     bordercolor="#666666"
     borderopacity="1.0"
     inkscape:pageopacity="0.0"
     inkscape:pageshadow="2"
     inkscape:zoom="0.98994949"
     inkscape:cx="372.72667"
     inkscape:cy="50.949025"
     inkscape:document-units="px"
     inkscape:current-layer="layer1"
     showgrid="false"
     showguides="true"
     inkscape:guide-bbox="true"
     fit-margin-top="2"
     fit-margin-left="2"
     fit-margin-right="0"
     fit-margin-bottom="2"
     showborder="true"
     inkscape:window-width="1920"
     inkscape:window-height="1016"
     inkscape:window-x="0"
     inkscape:window-y="27"
     inkscape:window-maximized="1" />
  <metadata
     id="metadata7">
    <rdf:RDF>
      <cc:Work
         rdf:about="">
        <dc:format>image/svg+xml</dc:format>
        <dc:type
           rdf:resource="http://purl.org/dc/dcmitype/StillImage" />
        <dc:title />
      </cc:Work>
    </rdf:RDF>
  </metadata>
  <g
     inkscape:label="Layer 1"
     inkscape:groupmode="layer"
     id="layer1"
     transform="translate(11.748728,-79.387047)">
    <rect
       style="fill:#dedede;fill-opacity:1;stroke:#000000;stroke-width:1;stroke-miterlimit:4;stroke-opacity:1;stroke-dasharray:4, 4;stroke-dashoffset:0"
       id="rect3035"
       width="413.44882"
       height="80.591728"
       x="208.1889"
       y="52.111893"
       transform="translate(-47.06876,97.230873)" />
    <g
       id="g6929">
      <rect
         y="167.44884"
         x="37.540199"
         height="39.634151"
         width="111.94725"
         id="rect2985"
         style="fill:#c6c6c6;fill-opacity:1;fill-rule:nonzero;stroke:#000000;stroke-opacity:1" />
      <text
         id="text3755"
         y="183.16652"
         x="93.744232"
         style="font-style:normal;font-variant:normal;font-weight:normal;font-stretch:normal;line-height:0%;font-family:'Arial Unicode MS';-inkscape-font-specification:'Arial Unicode MS';text-align:center;letter-spacing:0px;word-spacing:0px;text-anchor:middle;fill:#000000;fill-opacity:1;stroke:none"
         xml:space="preserve"><tspan
           style="font-size:12px;line-height:1.25"
           id="tspan3805"
           y="183.16652"
           x="93.744232"
           sodipodi:role="line">Path</tspan><tspan
           style="font-size:12px;line-height:1.25"
           y="198.16652"
           x="93.744232"
           sodipodi:role="line"
           id="tspan884">selection</tspan></text>
    </g>
    <g
       id="g6911">
      <rect
         style="fill:#c6c6c6;fill-opacity:1;fill-rule:nonzero;stroke:#000000;stroke-opacity:1"
         id="rect3761"
         width="111.94725"
         height="39.634151"
         x="452.08563"
         y="167.23813" />
      <text
         id="text3763"
         y="184.08511"
         x="507.88873"
         style="font-style:normal;font-variant:normal;font-weight:normal;font-stretch:normal;line-height:0%;font-family:'Arial Unicode MS';-inkscape-font-specification:'Arial Unicode MS';text-align:center;letter-spacing:0px;word-spacing:0px;text-anchor:middle;fill:#000000;fill-opacity:1;stroke:none"
         xml:space="preserve"><tspan
           style="font-size:12px;line-height:1.25"
           id="tspan3767"
           y="184.08511"
           x="507.88873"
           sodipodi:role="line">Cruise speed</tspan><tspan
           style="font-size:12px;line-height:1.25"
           y="199.08511"
           x="507.88873"
           sodipodi:role="line"
           id="tspan896">selection</tspan></text>
    </g>
    <g
       id="g6917">
      <rect
         y="167.5619"
         x="313.70996"
         height="39.634151"
         width="111.94725"
         id="rect3769"
         style="fill:#c6c6c6;fill-opacity:1;fill-rule:nonzero;stroke:#000000;stroke-opacity:1" />
      <text
         id="text3771"
         y="181.84761"
         x="369.51398"
         style="font-style:normal;font-variant:normal;font-weight:normal;font-stretch:normal;line-height:0%;font-family:'Arial Unicode MS';-inkscape-font-specification:'Arial Unicode MS';letter-spacing:0px;word-spacing:0px;fill:#000000;fill-opacity:1;stroke:none"
         xml:space="preserve"><tspan
           id="tspan3787"
           style="font-size:12px;line-height:1.25;text-align:center;text-anchor:middle"
           y="181.84761"
           x="369.51398"
           sodipodi:role="line">Trajectory-based</tspan><tspan
           style="font-size:12px;line-height:1.25;text-align:center;text-anchor:middle"
           y="196.84761"
           x="369.51398"
           sodipodi:role="line"
           id="tspan892">adaptation</tspan></text>
    </g>
    <g
       id="g6923">
      <rect
         style="fill:#c6c6c6;fill-opacity:1;fill-rule:nonzero;stroke:#000000;stroke-opacity:1"
         id="rect3775"
         width="111.94725"
         height="39.634151"
         x="175.57158"
         y="167.4314" />
      <text
         id="text3777"
         y="183.43143"
         x="230.96272"
         style="font-style:normal;font-variant:normal;font-weight:normal;font-stretch:normal;line-height:0%;font-family:'Arial Unicode MS';-inkscape-font-specification:'Arial Unicode MS';text-align:center;letter-spacing:0px;word-spacing:0px;text-anchor:middle;fill:#000000;fill-opacity:1;stroke:none"
         xml:space="preserve"><tspan
           style="font-size:12px;line-height:1.25"
           id="tspan3809"
           y="183.43143"
           x="230.96272"
           sodipodi:role="line">Lane</tspan><tspan
           style="font-size:12px;line-height:1.25"
           y="198.43143"
           x="230.96272"
           sodipodi:role="line"
           id="tspan888">change</tspan></text>
    </g>
    <g
       id="g6905">
      <rect
         y="167.29649"
         x="589.40546"
         height="39.634151"
         width="111.94725"
         id="rect3781"
         style="fill:#c6c6c6;fill-opacity:1;fill-rule:nonzero;stroke:#000000;stroke-opacity:1" />
      <text
         id="text3783"
         y="185.26321"
         x="644.49408"
         style="font-style:normal;font-variant:normal;font-weight:normal;font-stretch:normal;line-height:0%;font-family:'Arial Unicode MS';-inkscape-font-specification:'Arial Unicode MS';text-align:center;letter-spacing:0px;word-spacing:0px;text-anchor:middle;fill:#000000;fill-opacity:1;stroke:none"
         xml:space="preserve"><tspan
           id="tspan3833"
           style="font-size:12px;line-height:1.25"
           y="185.26321"
           x="644.49408"
           sodipodi:role="line">Collision</tspan><tspan
           style="font-size:12px;line-height:1.25"
           y="200.26321"
           x="644.49408"
           sodipodi:role="line"
           id="tspan900">avoidance</tspan></text>
    </g>
    <g
       id="g6895">
      <rect
         y="97.730873"
         x="451.8573"
         height="39.63414"
         width="249.44112"
         id="rect3791"
         style="fill:#c6c6c6;fill-opacity:1;fill-rule:nonzero;stroke:#000000;stroke-opacity:1" />
      <text
         id="text3793"
         y="120.21934"
         x="576.177"
         style="font-style:normal;font-variant:normal;font-weight:normal;font-stretch:normal;line-height:0%;font-family:'Arial Unicode MS';-inkscape-font-specification:'Arial Unicode MS';text-align:center;letter-spacing:0px;word-spacing:0px;text-anchor:middle;fill:#000000;fill-opacity:1;stroke:none"
         xml:space="preserve"><tspan
           y="120.21934"
           x="576.177"
           id="tspan3795"
           sodipodi:role="line"
           style="font-size:12px;line-height:1.25">Road sign management</tspan></text>
    </g>
    <path
       style="display:inline;fill:none;stroke:#000000;stroke-width:1px;stroke-linecap:butt;stroke-linejoin:miter;stroke-opacity:1;marker-end:url(#Arrow2Mend)"
       d="m 149.48745,187.19652 24.19565,-0.03"
       id="path3837"
       inkscape:connector-type="polyline"
       inkscape:connector-curvature="0"
       inkscape:connection-start="#rect2985"
       inkscape:connection-start-point="d4" />
    <path
       style="display:inline;fill:none;stroke:#000000;stroke-width:1px;stroke-linecap:butt;stroke-linejoin:miter;stroke-opacity:1;marker-end:url(#Arrow2Mend)"
       d="m 287.51883,187.19134 24.30263,-0.0248"
       id="path4469"
       inkscape:connector-type="polyline"
       inkscape:connector-curvature="0"
       inkscape:connection-start="#rect3775"
       inkscape:connection-start-point="d4" />
    <path
       style="display:inline;fill:none;stroke:#000000;stroke-width:1px;stroke-linecap:butt;stroke-linejoin:miter;stroke-opacity:1;marker-end:url(#Arrow2Mend)"
       d="m 425.65721,187.23072 24.23948,-0.0642"
       id="path4653"
       inkscape:connector-type="polyline"
       inkscape:connector-curvature="0"
       inkscape:connection-start="#rect3769"
       inkscape:connection-start-point="d4" />
    <path
       style="display:inline;fill:none;stroke:#000000;stroke-width:1px;stroke-linecap:butt;stroke-linejoin:miter;stroke-opacity:1;marker-end:url(#Arrow2Mend)"
       d="m 564.03288,187.13359 23.56023,0.033"
       id="path4837"
       inkscape:connector-type="polyline"
       inkscape:connector-curvature="0"
       inkscape:connection-start="#rect3761"
       inkscape:connection-start-point="d4" />
    <path
       style="display:inline;fill:none;stroke:#000000;stroke-width:1px;stroke-linecap:butt;stroke-linejoin:miter;stroke-opacity:1;marker-end:url(#Arrow2Mend)"
       d="m 508.21429,137.18361 v 28.13837"
       id="path5021"
       inkscape:connector-type="polyline"
       inkscape:connector-curvature="0" />
    <path
       style="display:inline;fill:none;stroke:#000000;stroke-width:1px;stroke-linecap:butt;stroke-linejoin:miter;stroke-opacity:1;marker-end:url(#Arrow2Mend)"
       d="m 645.23494,137.03771 v 28.41054"
       id="path5205"
       inkscape:connector-type="polyline"
       inkscape:connector-curvature="0" />
    <path
       style="display:inline;fill:none;stroke:#000000;stroke-width:1px;stroke-linecap:butt;stroke-linejoin:miter;stroke-opacity:1;marker-end:url(#Arrow2Mend)"
       d="M 14.987947,187.16652 H 35.625"
       id="path5389"
       inkscape:connector-type="polyline"
       inkscape:connector-curvature="0"
       sodipodi:nodetypes="cc" />
    <path
       style="fill:none;stroke:#000000;stroke-width:1px;stroke-linecap:butt;stroke-linejoin:miter;stroke-opacity:1;marker-end:url(#Arrow2Mend)"
       d="m 701.25,187.16652 h 30.71429"
       id="path5573"
       inkscape:connector-type="polyline"
       inkscape:connector-curvature="0" />
    <path
       style="fill:none;stroke:#000000;stroke-width:1px;stroke-linecap:butt;stroke-linejoin:miter;stroke-opacity:1;marker-start:url(#Arrow2Mstart);marker-mid:none;marker-end:url(#Arrow2Mend)"
       d="m 450.03565,117.71932 -435.03565,0 0,69.4472 0,53.03302 630.23494,0 0,-31.43203"
       id="path5957"
       inkscape:connector-curvature="0"
       sodipodi:nodetypes="cccccc" />
    <text
       xml:space="preserve"
       style="font-style:normal;font-variant:normal;font-weight:normal;font-stretch:normal;line-height:0%;font-family:'Arial Unicode MS';-inkscape-font-specification:'Arial Unicode MS';text-align:center;letter-spacing:0px;word-spacing:0px;text-anchor:middle;fill:#000000;fill-opacity:1;stroke:none"
       x="14.807913"
       y="90.135094"
       id="text6509"><tspan
         sodipodi:role="line"
         id="tspan6511"
         x="14.807913"
         y="90.135094"
         style="font-size:12px;line-height:1.25">Percepts</tspan></text>
    <g
       id="g6900">
      <rect
         style="fill:#afddb6;fill-opacity:1;fill-rule:nonzero;stroke:#000000;stroke-opacity:1"
         id="rect6513"
         width="111.94725"
         height="39.634151"
         x="733.97345"
         y="167.29649" />
      <text
         id="text6517"
         y="190.21938"
         x="789.63269"
         style="font-style:normal;font-variant:normal;font-weight:normal;font-stretch:normal;line-height:0%;font-family:'Arial Unicode MS';-inkscape-font-specification:'Arial Unicode MS';text-align:center;letter-spacing:0px;word-spacing:0px;text-anchor:middle;fill:#000000;fill-opacity:1;stroke:none"
         xml:space="preserve"><tspan
           y="190.21938"
           x="789.63269"
           sodipodi:role="line"
           style="font-size:12px;line-height:1.25"
           id="tspan902">Physic car model</tspan></text>
    </g>
    <path
       style="fill:none;stroke:#000000;stroke-width:1px;stroke-linecap:butt;stroke-linejoin:miter;stroke-opacity:1;marker-end:url(#Arrow2Mend)"
       d="m 789.9931,206.93064 0.081,34.87866"
       id="path6521"
       inkscape:connector-type="polyline"
       inkscape:connector-curvature="0"
       inkscape:connection-start="#rect6513"
       inkscape:connection-start-point="d4"
       sodipodi:nodetypes="cc" />
    <text
       xml:space="preserve"
       style="font-style:normal;font-variant:normal;font-weight:normal;font-stretch:normal;line-height:0%;font-family:'Arial Unicode MS';-inkscape-font-specification:'Arial Unicode MS';text-align:center;letter-spacing:0px;word-spacing:0px;text-anchor:middle;fill:#000000;fill-opacity:1;stroke:none"
       x="790.0741"
       y="255.1631"
       id="text6891"><tspan
         sodipodi:role="line"
         id="tspan6893"
         x="790.0741"
         y="255.1631"
         style="font-size:12px;line-height:1.25">Influences</tspan></text>
    <path
       style="fill:none;stroke:#000000;stroke-width:1px;stroke-linecap:butt;stroke-linejoin:miter;stroke-opacity:1"
       d="m 14.984811,117.57455 0,-22.589289"
       id="path6939"
       inkscape:connector-curvature="0"
       sodipodi:nodetypes="cc" />
    <text
       xml:space="preserve"
       style="font-style:normal;font-variant:normal;font-weight:normal;font-stretch:normal;line-height:0%;font-family:'Arial Unicode MS';-inkscape-font-specification:'Arial Unicode MS';text-align:center;letter-spacing:0px;word-spacing:0px;text-anchor:middle;fill:#000000;fill-opacity:1;stroke:none"
       x="366.83279"
       y="223.04218"
       id="text3817"><tspan
         sodipodi:role="line"
         id="tspan3819"
         x="366.83279"
         y="223.04218"
         style="font-size:12px;line-height:1.25;text-align:center;text-anchor:middle">Computation of the trajectory and the desired speed</tspan></text>
  </g>
</svg>
