"t"	"# Bodies"	"OS Duration (s)"
0.0	0	0.0
0.5	1	0.11900019645690918
1.0	1	0.006999969482421875
1.5	1	0.003999948501586914
2.0	1	0.006999969482421875
2.5	1	0.005000114440917969
3.0	1	0.003000020980834961
3.5	1	0.003999948501586914
