"t"	"Vehicle Id"	"Segment Id"	"Speed (m/s)"	"Acceleration (m/s**2)"
"0.5"	"""34534156-44c3-4bb3-84d9-f4c143d34fa3"""	"""49fd7697bc7b9e766d552f4987ad820c#938633;2302826;938633;2302827"""	"26.55962532910026"	"0.0"
"1.0"	"""34534156-44c3-4bb3-84d9-f4c143d34fa3"""	"""3ab660e05f32c19c434e0f4bcff25162#938646;2302828;938647;2302828"""	"26.55962532910026"	"0.0"
"1.5"	"""34534156-44c3-4bb3-84d9-f4c143d34fa3"""	"""0854580fb2131b4b3e95b109a72d9131#938659;2302829;938660;2302830"""	"26.55962532910026"	"0.0"
"2.0"	"""34534156-44c3-4bb3-84d9-f4c143d34fa3"""	"""60989b1c9c9d439252c1dcae8555ee30#938672;2302831;938673;2302832"""	"26.55962532910026"	"0.0"
"2.5"	"""34534156-44c3-4bb3-84d9-f4c143d34fa3"""	"""743b20b361b69b9304155a704faf710e#938685;2302833;938686;2302833"""	"26.55962532910026"	"0.0"
"3.0"	"""34534156-44c3-4bb3-84d9-f4c143d34fa3"""	"""dfa021483fef9abf72af00b3b63cb6d1#938698;2302834;938699;2302835"""	"26.55962532910026"	"0.0"
"3.5"	"""34534156-44c3-4bb3-84d9-f4c143d34fa3"""	"""88da9abc9341f7869a3210e3b0dfade6#938712;2302836;938712;2302837"""	"26.55962532910026"	"0.0"
"4.0"	"""34534156-44c3-4bb3-84d9-f4c143d34fa3"""	"""6346cab4f848a08de2cc0d93b343253c#938725;2302838;938726;2302838"""	"26.55962532910026"	"0.0"
