"t"	"Segment Id"	"Nb bodies (#)"	"Avg distance (m)"	"Std dev distance (m)"	"Min distance (m)"	"Max distance (m)"
"0.5"	"ddd763893b864fbb193be0a581e190b3#938620;2302823;939620;2302950"	"1"	"992.8227322216372"	"0.0"	"992.8227322216372"	"992.8227322216372"
"1.0"	"ddd763893b864fbb193be0a581e190b3#938620;2302823;939620;2302950"	"1"	"977.613222895416"	"0.0"	"977.613222895416"	"977.613222895416"
"1.5"	"ddd763893b864fbb193be0a581e190b3#938620;2302823;939620;2302950"	"1"	"962.4037135691947"	"0.0"	"962.4037135691947"	"962.4037135691947"
"2.0"	"ddd763893b864fbb193be0a581e190b3#938620;2302823;939620;2302950"	"1"	"947.1942042429735"	"0.0"	"947.1942042429735"	"947.1942042429735"
"2.5"	"ddd763893b864fbb193be0a581e190b3#938620;2302823;939620;2302950"	"1"	"931.9846949167522"	"0.0"	"931.9846949167522"	"931.9846949167522"
"3.0"	"ddd763893b864fbb193be0a581e190b3#938620;2302823;939620;2302950"	"1"	"916.775185590531"	"0.0"	"916.775185590531"	"916.775185590531"
"3.5"	"ddd763893b864fbb193be0a581e190b3#938620;2302823;939620;2302950"	"1"	"901.5656762643098"	"0.0"	"901.5656762643098"	"901.5656762643098"
