"t"	"Vehicle Id"	"Cumulative Back Crashes"	"Cumulative Front Crashes"	"Cumulative Crashes"	"Relative Speed"
"0.5"	"""638b5651-0cc4-4bb0-b800-ae6dcf9fc4fb"""	"0"	"0"	"0"	"0.0"
"1.0"	"""638b5651-0cc4-4bb0-b800-ae6dcf9fc4fb"""	"0"	"0"	"0"	"0.0"
"1.5"	"""638b5651-0cc4-4bb0-b800-ae6dcf9fc4fb"""	"0"	"0"	"0"	"0.0"
"2.0"	"""638b5651-0cc4-4bb0-b800-ae6dcf9fc4fb"""	"0"	"0"	"0"	"0.0"
"2.5"	"""638b5651-0cc4-4bb0-b800-ae6dcf9fc4fb"""	"0"	"0"	"0"	"0.0"
"3.0"	"""638b5651-0cc4-4bb0-b800-ae6dcf9fc4fb"""	"0"	"0"	"0"	"0.0"
"3.5"	"""638b5651-0cc4-4bb0-b800-ae6dcf9fc4fb"""	"0"	"0"	"0"	"0.0"
