"t"	"Segment Id"	"Nb bodies (#)"	"Avg speed (m/s)"	"Std dev speed (m/s)"	"Min speed (m/s)"	"Max speed (m/s)"	"Avg acceleration (m/s**2)"	"Std dev acceleration (m/s**2)"	"Min acceleration (m/s**2)"	"Max acceleration (m/s**2)"
"0.5"	"""ddd763893b864fbb193be0a581e190b3#938620;2302823;939620;2302950"""	"1"	"29.129839991601315"	"0.0"	"29.129839991601315"	"29.129839991601315"	"0.0"	"0.0"	"0.0"	"0.0"
"1.0"	"""ddd763893b864fbb193be0a581e190b3#938620;2302823;939620;2302950"""	"1"	"29.129839991601315"	"0.0"	"29.129839991601315"	"29.129839991601315"	"0.0"	"0.0"	"0.0"	"0.0"
"1.5"	"""ddd763893b864fbb193be0a581e190b3#938620;2302823;939620;2302950"""	"1"	"29.129839991601315"	"0.0"	"29.129839991601315"	"29.129839991601315"	"0.0"	"0.0"	"0.0"	"0.0"
"2.0"	"""ddd763893b864fbb193be0a581e190b3#938620;2302823;939620;2302950"""	"1"	"29.129839991601315"	"0.0"	"29.129839991601315"	"29.129839991601315"	"0.0"	"0.0"	"0.0"	"0.0"
"2.5"	"""ddd763893b864fbb193be0a581e190b3#938620;2302823;939620;2302950"""	"1"	"29.129839991601315"	"0.0"	"29.129839991601315"	"29.129839991601315"	"0.0"	"0.0"	"0.0"	"0.0"
"3.0"	"""ddd763893b864fbb193be0a581e190b3#938620;2302823;939620;2302950"""	"1"	"29.129839991601315"	"0.0"	"29.129839991601315"	"29.129839991601315"	"0.0"	"0.0"	"0.0"	"0.0"
"3.5"	"""ddd763893b864fbb193be0a581e190b3#938620;2302823;939620;2302950"""	"1"	"29.129839991601315"	"0.0"	"29.129839991601315"	"29.129839991601315"	"0.0"	"0.0"	"0.0"	"0.0"
"4.0"	"""ddd763893b864fbb193be0a581e190b3#938620;2302823;939620;2302950"""	"1"	"29.129839991601315"	"0.0"	"29.129839991601315"	"29.129839991601315"	"0.0"	"0.0"	"0.0"	"0.0"
"4.5"	"""ddd763893b864fbb193be0a581e190b3#938620;2302823;939620;2302950"""	"1"	"29.129839991601315"	"0.0"	"29.129839991601315"	"29.129839991601315"	"0.0"	"0.0"	"0.0"	"0.0"
"5.0"	"""ddd763893b864fbb193be0a581e190b3#938620;2302823;939620;2302950"""	"1"	"29.129839991601315"	"0.0"	"29.129839991601315"	"29.129839991601315"	"0.0"	"0.0"	"0.0"	"0.0"
"5.5"	"""ddd763893b864fbb193be0a581e190b3#938620;2302823;939620;2302950"""	"1"	"29.129839991601315"	"0.0"	"29.129839991601315"	"29.129839991601315"	"0.0"	"0.0"	"0.0"	"0.0"
"6.0"	"""ddd763893b864fbb193be0a581e190b3#938620;2302823;939620;2302950"""	"1"	"29.129839991601315"	"0.0"	"29.129839991601315"	"29.129839991601315"	"0.0"	"0.0"	"0.0"	"0.0"
"6.5"	"""ddd763893b864fbb193be0a581e190b3#938620;2302823;939620;2302950"""	"1"	"29.129839991601315"	"0.0"	"29.129839991601315"	"29.129839991601315"	"0.0"	"0.0"	"0.0"	"0.0"
"7.0"	"""ddd763893b864fbb193be0a581e190b3#938620;2302823;939620;2302950"""	"1"	"29.129839991601315"	"0.0"	"29.129839991601315"	"29.129839991601315"	"0.0"	"0.0"	"0.0"	"0.0"
"7.5"	"""ddd763893b864fbb193be0a581e190b3#938620;2302823;939620;2302950"""	"1"	"29.129839991601315"	"0.0"	"29.129839991601315"	"29.129839991601315"	"0.0"	"0.0"	"0.0"	"0.0"
"8.0"	"""ddd763893b864fbb193be0a581e190b3#938620;2302823;939620;2302950"""	"1"	"29.129839991601315"	"0.0"	"29.129839991601315"	"29.129839991601315"	"0.0"	"0.0"	"0.0"	"0.0"
"8.5"	"""ddd763893b864fbb193be0a581e190b3#938620;2302823;939620;2302950"""	"1"	"29.129839991601315"	"0.0"	"29.129839991601315"	"29.129839991601315"	"0.0"	"0.0"	"0.0"	"0.0"
"9.0"	"""ddd763893b864fbb193be0a581e190b3#938620;2302823;939620;2302950"""	"1"	"29.129839991601315"	"0.0"	"29.129839991601315"	"29.129839991601315"	"0.0"	"0.0"	"0.0"	"0.0"
"9.5"	"""ddd763893b864fbb193be0a581e190b3#938620;2302823;939620;2302950"""	"1"	"29.129839991601315"	"0.0"	"29.129839991601315"	"29.129839991601315"	"0.0"	"0.0"	"0.0"	"0.0"
"10.0"	"""ddd763893b864fbb193be0a581e190b3#938620;2302823;939620;2302950"""	"1"	"29.129839991601315"	"0.0"	"29.129839991601315"	"29.129839991601315"	"0.0"	"0.0"	"0.0"	"0.0"
"10.5"	"""ddd763893b864fbb193be0a581e190b3#938620;2302823;939620;2302950"""	"1"	"29.129839991601315"	"0.0"	"29.129839991601315"	"29.129839991601315"	"0.0"	"0.0"	"0.0"	"0.0"
"11.0"	"""ddd763893b864fbb193be0a581e190b3#938620;2302823;939620;2302950"""	"1"	"29.129839991601315"	"0.0"	"29.129839991601315"	"29.129839991601315"	"0.0"	"0.0"	"0.0"	"0.0"
"11.5"	"""ddd763893b864fbb193be0a581e190b3#938620;2302823;939620;2302950"""	"1"	"29.129839991601315"	"0.0"	"29.129839991601315"	"29.129839991601315"	"0.0"	"0.0"	"0.0"	"0.0"
"12.0"	"""ddd763893b864fbb193be0a581e190b3#938620;2302823;939620;2302950"""	"1"	"29.129839991601315"	"0.0"	"29.129839991601315"	"29.129839991601315"	"0.0"	"0.0"	"0.0"	"0.0"
"12.5"	"""ddd763893b864fbb193be0a581e190b3#938620;2302823;939620;2302950"""	"1"	"29.129839991601315"	"0.0"	"29.129839991601315"	"29.129839991601315"	"0.0"	"0.0"	"0.0"	"0.0"
"13.0"	"""ddd763893b864fbb193be0a581e190b3#938620;2302823;939620;2302950"""	"1"	"29.129839991601315"	"0.0"	"29.129839991601315"	"29.129839991601315"	"0.0"	"0.0"	"0.0"	"0.0"
"13.5"	"""ddd763893b864fbb193be0a581e190b3#938620;2302823;939620;2302950"""	"1"	"29.129839991601315"	"0.0"	"29.129839991601315"	"29.129839991601315"	"0.0"	"0.0"	"0.0"	"0.0"
"14.0"	"""ddd763893b864fbb193be0a581e190b3#938620;2302823;939620;2302950"""	"1"	"29.129839991601315"	"0.0"	"29.129839991601315"	"29.129839991601315"	"0.0"	"0.0"	"0.0"	"0.0"
"14.5"	"""ddd763893b864fbb193be0a581e190b3#938620;2302823;939620;2302950"""	"1"	"29.129839991601315"	"0.0"	"29.129839991601315"	"29.129839991601315"	"0.0"	"0.0"	"0.0"	"0.0"
"15.0"	"""ddd763893b864fbb193be0a581e190b3#938620;2302823;939620;2302950"""	"1"	"29.129839991601315"	"0.0"	"29.129839991601315"	"29.129839991601315"	"0.0"	"0.0"	"0.0"	"0.0"
"15.5"	"""ddd763893b864fbb193be0a581e190b3#938620;2302823;939620;2302950"""	"1"	"29.129839991601315"	"0.0"	"29.129839991601315"	"29.129839991601315"	"0.0"	"0.0"	"0.0"	"0.0"
"16.0"	"""ddd763893b864fbb193be0a581e190b3#938620;2302823;939620;2302950"""	"1"	"29.129839991601315"	"0.0"	"29.129839991601315"	"29.129839991601315"	"0.0"	"0.0"	"0.0"	"0.0"
"16.5"	"""ddd763893b864fbb193be0a581e190b3#938620;2302823;939620;2302950"""	"1"	"29.129839991601315"	"0.0"	"29.129839991601315"	"29.129839991601315"	"0.0"	"0.0"	"0.0"	"0.0"
"17.0"	"""ddd763893b864fbb193be0a581e190b3#938620;2302823;939620;2302950"""	"1"	"29.129839991601315"	"0.0"	"29.129839991601315"	"29.129839991601315"	"0.0"	"0.0"	"0.0"	"0.0"
"17.5"	"""ddd763893b864fbb193be0a581e190b3#938620;2302823;939620;2302950"""	"1"	"29.129839991601315"	"0.0"	"29.129839991601315"	"29.129839991601315"	"0.0"	"0.0"	"0.0"	"0.0"
"18.0"	"""ddd763893b864fbb193be0a581e190b3#938620;2302823;939620;2302950"""	"1"	"29.129839991601315"	"0.0"	"29.129839991601315"	"29.129839991601315"	"0.0"	"0.0"	"0.0"	"0.0"
"18.5"	"""ddd763893b864fbb193be0a581e190b3#938620;2302823;939620;2302950"""	"1"	"29.129839991601315"	"0.0"	"29.129839991601315"	"29.129839991601315"	"0.0"	"0.0"	"0.0"	"0.0"
"19.0"	"""ddd763893b864fbb193be0a581e190b3#938620;2302823;939620;2302950"""	"1"	"29.129839991601315"	"0.0"	"29.129839991601315"	"29.129839991601315"	"0.0"	"0.0"	"0.0"	"0.0"
"19.5"	"""ddd763893b864fbb193be0a581e190b3#938620;2302823;939620;2302950"""	"1"	"29.129839991601315"	"0.0"	"29.129839991601315"	"29.129839991601315"	"0.0"	"0.0"	"0.0"	"0.0"
"20.0"	"""ddd763893b864fbb193be0a581e190b3#938620;2302823;939620;2302950"""	"1"	"29.129839991601315"	"0.0"	"29.129839991601315"	"29.129839991601315"	"0.0"	"0.0"	"0.0"	"0.0"
"20.5"	"""ddd763893b864fbb193be0a581e190b3#938620;2302823;939620;2302950"""	"1"	"29.129839991601315"	"0.0"	"29.129839991601315"	"29.129839991601315"	"0.0"	"0.0"	"0.0"	"0.0"
"21.0"	"""ddd763893b864fbb193be0a581e190b3#938620;2302823;939620;2302950"""	"1"	"29.129839991601315"	"0.0"	"29.129839991601315"	"29.129839991601315"	"0.0"	"0.0"	"0.0"	"0.0"
"21.5"	"""ddd763893b864fbb193be0a581e190b3#938620;2302823;939620;2302950"""	"1"	"29.129839991601315"	"0.0"	"29.129839991601315"	"29.129839991601315"	"0.0"	"0.0"	"0.0"	"0.0"
"22.0"	"""ddd763893b864fbb193be0a581e190b3#938620;2302823;939620;2302950"""	"1"	"29.129839991601315"	"0.0"	"29.129839991601315"	"29.129839991601315"	"0.0"	"0.0"	"0.0"	"0.0"
"22.5"	"""ddd763893b864fbb193be0a581e190b3#938620;2302823;939620;2302950"""	"1"	"29.129839991601315"	"0.0"	"29.129839991601315"	"29.129839991601315"	"0.0"	"0.0"	"0.0"	"0.0"
"23.0"	"""ddd763893b864fbb193be0a581e190b3#938620;2302823;939620;2302950"""	"1"	"29.129839991601315"	"0.0"	"29.129839991601315"	"29.129839991601315"	"0.0"	"0.0"	"0.0"	"0.0"
"23.5"	"""ddd763893b864fbb193be0a581e190b3#938620;2302823;939620;2302950"""	"1"	"29.129839991601315"	"0.0"	"29.129839991601315"	"29.129839991601315"	"0.0"	"0.0"	"0.0"	"0.0"
"24.0"	"""ddd763893b864fbb193be0a581e190b3#938620;2302823;939620;2302950"""	"1"	"29.129839991601315"	"0.0"	"29.129839991601315"	"29.129839991601315"	"0.0"	"0.0"	"0.0"	"0.0"
"24.5"	"""ddd763893b864fbb193be0a581e190b3#938620;2302823;939620;2302950"""	"1"	"29.129839991601315"	"0.0"	"29.129839991601315"	"29.129839991601315"	"0.0"	"0.0"	"0.0"	"0.0"
"25.0"	"""ddd763893b864fbb193be0a581e190b3#938620;2302823;939620;2302950"""	"1"	"29.129839991601315"	"0.0"	"29.129839991601315"	"29.129839991601315"	"0.0"	"0.0"	"0.0"	"0.0"
"25.5"	"""ddd763893b864fbb193be0a581e190b3#938620;2302823;939620;2302950"""	"1"	"29.129839991601315"	"0.0"	"29.129839991601315"	"29.129839991601315"	"0.0"	"0.0"	"0.0"	"0.0"
"26.0"	"""ddd763893b864fbb193be0a581e190b3#938620;2302823;939620;2302950"""	"1"	"29.129839991601315"	"0.0"	"29.129839991601315"	"29.129839991601315"	"0.0"	"0.0"	"0.0"	"0.0"
"26.5"	"""ddd763893b864fbb193be0a581e190b3#938620;2302823;939620;2302950"""	"1"	"29.129839991601315"	"0.0"	"29.129839991601315"	"29.129839991601315"	"0.0"	"0.0"	"0.0"	"0.0"
"27.0"	"""ddd763893b864fbb193be0a581e190b3#938620;2302823;939620;2302950"""	"1"	"29.129839991601315"	"0.0"	"29.129839991601315"	"29.129839991601315"	"0.0"	"0.0"	"0.0"	"0.0"
"27.5"	"""ddd763893b864fbb193be0a581e190b3#938620;2302823;939620;2302950"""	"1"	"29.129839991601315"	"0.0"	"29.129839991601315"	"29.129839991601315"	"0.0"	"0.0"	"0.0"	"0.0"
"28.0"	"""ddd763893b864fbb193be0a581e190b3#938620;2302823;939620;2302950"""	"1"	"29.129839991601315"	"0.0"	"29.129839991601315"	"29.129839991601315"	"0.0"	"0.0"	"0.0"	"0.0"
"28.5"	"""ddd763893b864fbb193be0a581e190b3#938620;2302823;939620;2302950"""	"1"	"29.129839991601315"	"0.0"	"29.129839991601315"	"29.129839991601315"	"0.0"	"0.0"	"0.0"	"0.0"
