"t"	"Vehicle Id"	"Cumulative Back Crashes"	"Cumulative Front Crashes"	"Cumulative Crashes"	"Relative Speed"
"0.5"	"""8620a407-ffda-4646-b4fc-c319fd8da0fd"""	"0"	"0"	"0"	"0.0"
"1.0"	"""8620a407-ffda-4646-b4fc-c319fd8da0fd"""	"0"	"0"	"0"	"0.0"
"1.5"	"""8620a407-ffda-4646-b4fc-c319fd8da0fd"""	"0"	"0"	"0"	"0.0"
"2.0"	"""8620a407-ffda-4646-b4fc-c319fd8da0fd"""	"0"	"0"	"0"	"0.0"
"2.5"	"""8620a407-ffda-4646-b4fc-c319fd8da0fd"""	"0"	"0"	"0"	"0.0"
"3.0"	"""8620a407-ffda-4646-b4fc-c319fd8da0fd"""	"0"	"0"	"0"	"0.0"
"3.5"	"""8620a407-ffda-4646-b4fc-c319fd8da0fd"""	"0"	"0"	"0"	"0.0"
"4.0"	"""8620a407-ffda-4646-b4fc-c319fd8da0fd"""	"0"	"0"	"0"	"0.0"
"4.5"	"""8620a407-ffda-4646-b4fc-c319fd8da0fd"""	"0"	"0"	"0"	"0.0"
"4.5"	"""8620a407-ffda-4646-b4fc-c319fd8da0fd"""	"0"	"0"	"0"	"0.0"
"5.0"	"""8620a407-ffda-4646-b4fc-c319fd8da0fd"""	"0"	"0"	"0"	"0.0"
"5.0"	"""8620a407-ffda-4646-b4fc-c319fd8da0fd"""	"0"	"0"	"0"	"0.0"
"5.5"	"""8620a407-ffda-4646-b4fc-c319fd8da0fd"""	"0"	"0"	"0"	"0.0"
"5.5"	"""8620a407-ffda-4646-b4fc-c319fd8da0fd"""	"0"	"0"	"0"	"0.0"
"6.0"	"""8620a407-ffda-4646-b4fc-c319fd8da0fd"""	"0"	"0"	"0"	"0.0"
"6.0"	"""8620a407-ffda-4646-b4fc-c319fd8da0fd"""	"0"	"0"	"0"	"0.0"
"6.5"	"""8620a407-ffda-4646-b4fc-c319fd8da0fd"""	"0"	"0"	"0"	"0.0"
"6.5"	"""8620a407-ffda-4646-b4fc-c319fd8da0fd"""	"0"	"0"	"0"	"0.0"
"7.0"	"""8620a407-ffda-4646-b4fc-c319fd8da0fd"""	"0"	"0"	"0"	"0.0"
"7.0"	"""8620a407-ffda-4646-b4fc-c319fd8da0fd"""	"0"	"0"	"0"	"0.0"
"7.5"	"""8620a407-ffda-4646-b4fc-c319fd8da0fd"""	"0"	"0"	"0"	"0.0"
"7.5"	"""8620a407-ffda-4646-b4fc-c319fd8da0fd"""	"0"	"0"	"0"	"0.0"
"8.0"	"""8620a407-ffda-4646-b4fc-c319fd8da0fd"""	"0"	"0"	"0"	"0.0"
"8.0"	"""8620a407-ffda-4646-b4fc-c319fd8da0fd"""	"0"	"0"	"0"	"0.0"
"8.5"	"""8620a407-ffda-4646-b4fc-c319fd8da0fd"""	"0"	"0"	"0"	"0.0"
"8.5"	"""8620a407-ffda-4646-b4fc-c319fd8da0fd"""	"0"	"0"	"0"	"0.0"
"9.0"	"""8620a407-ffda-4646-b4fc-c319fd8da0fd"""	"0"	"0"	"0"	"0.0"
"9.0"	"""8620a407-ffda-4646-b4fc-c319fd8da0fd"""	"0"	"0"	"0"	"0.0"
"9.5"	"""8620a407-ffda-4646-b4fc-c319fd8da0fd"""	"0"	"0"	"0"	"0.0"
"9.5"	"""8620a407-ffda-4646-b4fc-c319fd8da0fd"""	"0"	"0"	"0"	"0.0"
"10.0"	"""8620a407-ffda-4646-b4fc-c319fd8da0fd"""	"0"	"0"	"0"	"0.0"
"10.0"	"""8620a407-ffda-4646-b4fc-c319fd8da0fd"""	"0"	"0"	"0"	"0.0"
"10.5"	"""8620a407-ffda-4646-b4fc-c319fd8da0fd"""	"0"	"0"	"0"	"0.0"
"10.5"	"""8620a407-ffda-4646-b4fc-c319fd8da0fd"""	"0"	"0"	"0"	"0.0"
"11.0"	"""8620a407-ffda-4646-b4fc-c319fd8da0fd"""	"0"	"0"	"0"	"0.0"
"11.0"	"""8620a407-ffda-4646-b4fc-c319fd8da0fd"""	"0"	"0"	"0"	"0.0"
"11.5"	"""8620a407-ffda-4646-b4fc-c319fd8da0fd"""	"0"	"0"	"0"	"0.0"
"11.5"	"""8620a407-ffda-4646-b4fc-c319fd8da0fd"""	"0"	"0"	"0"	"0.0"
"12.0"	"""8620a407-ffda-4646-b4fc-c319fd8da0fd"""	"0"	"0"	"0"	"0.0"
"12.0"	"""8620a407-ffda-4646-b4fc-c319fd8da0fd"""	"0"	"0"	"0"	"0.0"
"12.5"	"""8620a407-ffda-4646-b4fc-c319fd8da0fd"""	"0"	"0"	"0"	"0.0"
"12.5"	"""8620a407-ffda-4646-b4fc-c319fd8da0fd"""	"0"	"0"	"0"	"0.0"
"13.0"	"""8620a407-ffda-4646-b4fc-c319fd8da0fd"""	"0"	"0"	"0"	"0.0"
"13.0"	"""8620a407-ffda-4646-b4fc-c319fd8da0fd"""	"0"	"0"	"0"	"0.0"
"13.5"	"""8620a407-ffda-4646-b4fc-c319fd8da0fd"""	"0"	"0"	"0"	"0.0"
"13.5"	"""8620a407-ffda-4646-b4fc-c319fd8da0fd"""	"0"	"0"	"0"	"0.0"
"14.0"	"""8620a407-ffda-4646-b4fc-c319fd8da0fd"""	"0"	"0"	"0"	"0.0"
"14.0"	"""8620a407-ffda-4646-b4fc-c319fd8da0fd"""	"0"	"0"	"0"	"0.0"
"14.5"	"""8620a407-ffda-4646-b4fc-c319fd8da0fd"""	"0"	"0"	"0"	"0.0"
"14.5"	"""8620a407-ffda-4646-b4fc-c319fd8da0fd"""	"0"	"0"	"0"	"0.0"
"15.0"	"""8620a407-ffda-4646-b4fc-c319fd8da0fd"""	"0"	"0"	"0"	"0.0"
"15.0"	"""8620a407-ffda-4646-b4fc-c319fd8da0fd"""	"0"	"0"	"0"	"0.0"
"15.5"	"""8620a407-ffda-4646-b4fc-c319fd8da0fd"""	"0"	"0"	"0"	"0.0"
"15.5"	"""8620a407-ffda-4646-b4fc-c319fd8da0fd"""	"0"	"0"	"0"	"0.0"
"16.0"	"""8620a407-ffda-4646-b4fc-c319fd8da0fd"""	"0"	"0"	"0"	"0.0"
"16.0"	"""8620a407-ffda-4646-b4fc-c319fd8da0fd"""	"0"	"0"	"0"	"0.0"
"16.5"	"""8620a407-ffda-4646-b4fc-c319fd8da0fd"""	"0"	"0"	"0"	"0.0"
"16.5"	"""8620a407-ffda-4646-b4fc-c319fd8da0fd"""	"0"	"0"	"0"	"0.0"
"17.0"	"""8620a407-ffda-4646-b4fc-c319fd8da0fd"""	"0"	"0"	"0"	"0.0"
"17.0"	"""8620a407-ffda-4646-b4fc-c319fd8da0fd"""	"0"	"0"	"0"	"0.0"
"17.5"	"""8620a407-ffda-4646-b4fc-c319fd8da0fd"""	"0"	"0"	"0"	"0.0"
"17.5"	"""8620a407-ffda-4646-b4fc-c319fd8da0fd"""	"0"	"0"	"0"	"0.0"
"18.0"	"""8620a407-ffda-4646-b4fc-c319fd8da0fd"""	"0"	"0"	"0"	"0.0"
"18.0"	"""8620a407-ffda-4646-b4fc-c319fd8da0fd"""	"0"	"0"	"0"	"0.0"
"18.5"	"""8620a407-ffda-4646-b4fc-c319fd8da0fd"""	"0"	"0"	"0"	"0.0"
"18.5"	"""8620a407-ffda-4646-b4fc-c319fd8da0fd"""	"0"	"0"	"0"	"0.0"
"19.0"	"""8620a407-ffda-4646-b4fc-c319fd8da0fd"""	"0"	"0"	"0"	"0.0"
"19.0"	"""8620a407-ffda-4646-b4fc-c319fd8da0fd"""	"0"	"0"	"0"	"0.0"
"19.5"	"""8620a407-ffda-4646-b4fc-c319fd8da0fd"""	"0"	"0"	"0"	"0.0"
"19.5"	"""8620a407-ffda-4646-b4fc-c319fd8da0fd"""	"0"	"0"	"0"	"0.0"
"20.0"	"""8620a407-ffda-4646-b4fc-c319fd8da0fd"""	"0"	"0"	"0"	"0.0"
"20.0"	"""8620a407-ffda-4646-b4fc-c319fd8da0fd"""	"0"	"0"	"0"	"0.0"
"20.5"	"""8620a407-ffda-4646-b4fc-c319fd8da0fd"""	"0"	"0"	"0"	"0.0"
"20.5"	"""8620a407-ffda-4646-b4fc-c319fd8da0fd"""	"0"	"0"	"0"	"0.0"
"21.0"	"""8620a407-ffda-4646-b4fc-c319fd8da0fd"""	"0"	"0"	"0"	"0.0"
"21.0"	"""8620a407-ffda-4646-b4fc-c319fd8da0fd"""	"0"	"0"	"0"	"0.0"
"21.5"	"""8620a407-ffda-4646-b4fc-c319fd8da0fd"""	"0"	"0"	"0"	"0.0"
"21.5"	"""8620a407-ffda-4646-b4fc-c319fd8da0fd"""	"0"	"0"	"0"	"0.0"
"22.0"	"""8620a407-ffda-4646-b4fc-c319fd8da0fd"""	"0"	"0"	"0"	"0.0"
"22.0"	"""8620a407-ffda-4646-b4fc-c319fd8da0fd"""	"0"	"0"	"0"	"0.0"
"22.5"	"""8620a407-ffda-4646-b4fc-c319fd8da0fd"""	"0"	"0"	"0"	"0.0"
"22.5"	"""8620a407-ffda-4646-b4fc-c319fd8da0fd"""	"0"	"0"	"0"	"0.0"
"23.0"	"""8620a407-ffda-4646-b4fc-c319fd8da0fd"""	"0"	"0"	"0"	"0.0"
"23.0"	"""8620a407-ffda-4646-b4fc-c319fd8da0fd"""	"0"	"0"	"0"	"0.0"
"23.5"	"""8620a407-ffda-4646-b4fc-c319fd8da0fd"""	"0"	"0"	"0"	"0.0"
"23.5"	"""8620a407-ffda-4646-b4fc-c319fd8da0fd"""	"0"	"0"	"0"	"0.0"
"24.0"	"""8620a407-ffda-4646-b4fc-c319fd8da0fd"""	"0"	"0"	"0"	"0.0"
"24.0"	"""8620a407-ffda-4646-b4fc-c319fd8da0fd"""	"0"	"0"	"0"	"0.0"
"24.5"	"""8620a407-ffda-4646-b4fc-c319fd8da0fd"""	"0"	"0"	"0"	"0.0"
"24.5"	"""8620a407-ffda-4646-b4fc-c319fd8da0fd"""	"0"	"0"	"0"	"0.0"
"25.0"	"""8620a407-ffda-4646-b4fc-c319fd8da0fd"""	"0"	"0"	"0"	"0.0"
"25.0"	"""8620a407-ffda-4646-b4fc-c319fd8da0fd"""	"0"	"0"	"0"	"0.0"
"25.5"	"""8620a407-ffda-4646-b4fc-c319fd8da0fd"""	"0"	"0"	"0"	"0.0"
"25.5"	"""8620a407-ffda-4646-b4fc-c319fd8da0fd"""	"0"	"0"	"0"	"0.0"
"26.0"	"""8620a407-ffda-4646-b4fc-c319fd8da0fd"""	"0"	"0"	"0"	"0.0"
"26.0"	"""8620a407-ffda-4646-b4fc-c319fd8da0fd"""	"0"	"0"	"0"	"0.0"
"26.5"	"""8620a407-ffda-4646-b4fc-c319fd8da0fd"""	"0"	"0"	"0"	"0.0"
"26.5"	"""8620a407-ffda-4646-b4fc-c319fd8da0fd"""	"0"	"0"	"0"	"0.0"
"27.0"	"""8620a407-ffda-4646-b4fc-c319fd8da0fd"""	"0"	"0"	"0"	"0.0"
"27.0"	"""8620a407-ffda-4646-b4fc-c319fd8da0fd"""	"0"	"0"	"0"	"0.0"
"27.5"	"""8620a407-ffda-4646-b4fc-c319fd8da0fd"""	"0"	"0"	"0"	"0.0"
"27.5"	"""8620a407-ffda-4646-b4fc-c319fd8da0fd"""	"0"	"0"	"0"	"0.0"
"28.0"	"""8620a407-ffda-4646-b4fc-c319fd8da0fd"""	"0"	"0"	"0"	"0.0"
"28.0"	"""8620a407-ffda-4646-b4fc-c319fd8da0fd"""	"0"	"0"	"0"	"0.0"
"28.5"	"""8620a407-ffda-4646-b4fc-c319fd8da0fd"""	"0"	"0"	"0"	"0.0"
"28.5"	"""8620a407-ffda-4646-b4fc-c319fd8da0fd"""	"0"	"0"	"0"	"0.0"
