"t"	"Segment Id"	"Nb bodies (#)"	"Avg speed (m/s)"	"Std dev speed (m/s)"	"Min speed (m/s)"	"Max speed (m/s)"	"Avg acceleration (m/s**2)"	"Std dev acceleration (m/s**2)"	"Min acceleration (m/s**2)"	"Max acceleration (m/s**2)"
"0.5"	"""ddd763893b864fbb193be0a581e190b3#938620;2302823;939620;2302950"""	"1"	"30.75404890525494"	"0.0"	"30.75404890525494"	"30.75404890525494"	"0.0"	"0.0"	"0.0"	"0.0"
"1.0"	"""ddd763893b864fbb193be0a581e190b3#938620;2302823;939620;2302950"""	"1"	"30.75404890525494"	"0.0"	"30.75404890525494"	"30.75404890525494"	"0.0"	"0.0"	"0.0"	"0.0"
"1.5"	"""ddd763893b864fbb193be0a581e190b3#938620;2302823;939620;2302950"""	"1"	"30.75404890525494"	"0.0"	"30.75404890525494"	"30.75404890525494"	"0.0"	"0.0"	"0.0"	"0.0"
"2.0"	"""ddd763893b864fbb193be0a581e190b3#938620;2302823;939620;2302950"""	"1"	"30.75404890525494"	"0.0"	"30.75404890525494"	"30.75404890525494"	"0.0"	"0.0"	"0.0"	"0.0"
"2.5"	"""ddd763893b864fbb193be0a581e190b3#938620;2302823;939620;2302950"""	"1"	"30.75404890525494"	"0.0"	"30.75404890525494"	"30.75404890525494"	"0.0"	"0.0"	"0.0"	"0.0"
"3.0"	"""ddd763893b864fbb193be0a581e190b3#938620;2302823;939620;2302950"""	"1"	"30.75404890525494"	"0.0"	"30.75404890525494"	"30.75404890525494"	"0.0"	"0.0"	"0.0"	"0.0"
"3.5"	"""ddd763893b864fbb193be0a581e190b3#938620;2302823;939620;2302950"""	"1"	"30.75404890525494"	"0.0"	"30.75404890525494"	"30.75404890525494"	"0.0"	"0.0"	"0.0"	"0.0"
