"t"	"Segment Id"	"Nb bodies (#)"	"Avg distance (m)"	"Std dev distance (m)"	"Min distance (m)"	"Max distance (m)"
"0.5"	"ddd763893b864fbb193be0a581e190b3#938620;2302823;939620;2302950"	"1"	"995.026683432823"	"0.0"	"995.026683432823"	"995.026683432823"
"1.0"	"ddd763893b864fbb193be0a581e190b3#938620;2302823;939620;2302950"	"1"	"982.0211253177874"	"0.0"	"982.0211253177874"	"982.0211253177874"
