"t"	"Vehicle Id"	"Segment Id"	"Speed (m/s)"	"Acceleration (m/s**2)"
"0.5"	"""a166dea3-1165-4f2d-8a86-fffe4a332a5e"""	"""36959c9dcc904805b4870fb30daa4a4e#938636;2302826;938637;2302827"""	"33.230633642020194"	"0.0"
"1.0"	"""a166dea3-1165-4f2d-8a86-fffe4a332a5e"""	"""57f3b5ad912f242ffe63944d559f40cc#938652;2302828;938653;2302829"""	"33.230633642020194"	"0.0"
"1.5"	"""a166dea3-1165-4f2d-8a86-fffe4a332a5e"""	"""6f222b24804ca5d6881690a41cb1c8f6#938669;2302831;938670;2302831"""	"33.230633642020194"	"0.0"
"2.0"	"""a166dea3-1165-4f2d-8a86-fffe4a332a5e"""	"""743b20b361b69b9304155a704faf710e#938685;2302833;938686;2302833"""	"33.230633642020194"	"0.0"
"2.5"	"""a166dea3-1165-4f2d-8a86-fffe4a332a5e"""	"""c84787b1826d32b7c6c254822cfd36b3#938702;2302835;938703;2302835"""	"33.230633642020194"	"0.0"
"3.0"	"""a166dea3-1165-4f2d-8a86-fffe4a332a5e"""	"""f0f1092df39bc01901938f9c281e881b#938718;2302837;938719;2302838"""	"33.230633642020194"	"0.0"
"3.5"	"""a166dea3-1165-4f2d-8a86-fffe4a332a5e"""	"""d83dfd5ba00245a0b30513db28745cc5#938735;2302839;938736;2302840"""	"33.230633642020194"	"0.0"
