"t"	"Segment Id"	"Nb bodies (#)"	"Body size (m)"	"Segment length (m)"	"Spacing (m)"	"Density (#/m)"
0.5	"""ddd763893b864fbb193be0a581e190b3#938620;2302823;939620;2302950"""	1	4.5	1008.0322415478585	1008.0322415478583	9.920317612703293E-4
1.0	"""ddd763893b864fbb193be0a581e190b3#938620;2302823;939620;2302950"""	1	4.5	1008.0322415478585	1008.0322415478583	9.920317612703293E-4
1.5	"""ddd763893b864fbb193be0a581e190b3#938620;2302823;939620;2302950"""	1	4.5	1008.0322415478585	1008.0322415478583	9.920317612703293E-4
2.0	"""ddd763893b864fbb193be0a581e190b3#938620;2302823;939620;2302950"""	1	4.5	1008.0322415478585	1008.0322415478583	9.920317612703293E-4
2.5	"""ddd763893b864fbb193be0a581e190b3#938620;2302823;939620;2302950"""	1	4.5	1008.0322415478585	1008.0322415478583	9.920317612703293E-4
3.0	"""ddd763893b864fbb193be0a581e190b3#938620;2302823;939620;2302950"""	1	4.5	1008.0322415478585	1008.0322415478583	9.920317612703293E-4
3.5	"""ddd763893b864fbb193be0a581e190b3#938620;2302823;939620;2302950"""	1	4.5	1008.0322415478585	1008.0322415478583	9.920317612703293E-4
4.0	"""ddd763893b864fbb193be0a581e190b3#938620;2302823;939620;2302950"""	1	4.5	1008.0322415478585	1008.0322415478583	9.920317612703293E-4
4.5	"""ddd763893b864fbb193be0a581e190b3#938620;2302823;939620;2302950"""	1	4.5	1008.0322415478585	1008.0322415478583	9.920317612703293E-4
5.0	"""ddd763893b864fbb193be0a581e190b3#938620;2302823;939620;2302950"""	1	4.5	1008.0322415478585	1008.0322415478583	9.920317612703293E-4
5.5	"""ddd763893b864fbb193be0a581e190b3#938620;2302823;939620;2302950"""	1	4.5	1008.0322415478585	1008.0322415478583	9.920317612703293E-4
6.0	"""ddd763893b864fbb193be0a581e190b3#938620;2302823;939620;2302950"""	1	4.5	1008.0322415478585	1008.0322415478583	9.920317612703293E-4
6.5	"""ddd763893b864fbb193be0a581e190b3#938620;2302823;939620;2302950"""	1	4.5	1008.0322415478585	1008.0322415478583	9.920317612703293E-4
7.0	"""ddd763893b864fbb193be0a581e190b3#938620;2302823;939620;2302950"""	1	4.5	1008.0322415478585	1008.0322415478583	9.920317612703293E-4
7.5	"""ddd763893b864fbb193be0a581e190b3#938620;2302823;939620;2302950"""	1	4.5	1008.0322415478585	1008.0322415478583	9.920317612703293E-4
8.0	"""ddd763893b864fbb193be0a581e190b3#938620;2302823;939620;2302950"""	1	4.5	1008.0322415478585	1008.0322415478583	9.920317612703293E-4
8.5	"""ddd763893b864fbb193be0a581e190b3#938620;2302823;939620;2302950"""	1	4.5	1008.0322415478585	1008.0322415478583	9.920317612703293E-4
9.0	"""ddd763893b864fbb193be0a581e190b3#938620;2302823;939620;2302950"""	1	4.5	1008.0322415478585	1008.0322415478583	9.920317612703293E-4
9.5	"""ddd763893b864fbb193be0a581e190b3#938620;2302823;939620;2302950"""	1	4.5	1008.0322415478585	1008.0322415478583	9.920317612703293E-4
10.0	"""ddd763893b864fbb193be0a581e190b3#938620;2302823;939620;2302950"""	1	4.5	1008.0322415478585	1008.0322415478583	9.920317612703293E-4
10.5	"""ddd763893b864fbb193be0a581e190b3#938620;2302823;939620;2302950"""	1	4.5	1008.0322415478585	1008.0322415478583	9.920317612703293E-4
11.0	"""ddd763893b864fbb193be0a581e190b3#938620;2302823;939620;2302950"""	1	4.5	1008.0322415478585	1008.0322415478583	9.920317612703293E-4
11.5	"""ddd763893b864fbb193be0a581e190b3#938620;2302823;939620;2302950"""	1	4.5	1008.0322415478585	1008.0322415478583	9.920317612703293E-4
12.0	"""ddd763893b864fbb193be0a581e190b3#938620;2302823;939620;2302950"""	1	4.5	1008.0322415478585	1008.0322415478583	9.920317612703293E-4
12.5	"""ddd763893b864fbb193be0a581e190b3#938620;2302823;939620;2302950"""	1	4.5	1008.0322415478585	1008.0322415478583	9.920317612703293E-4
13.0	"""ddd763893b864fbb193be0a581e190b3#938620;2302823;939620;2302950"""	1	4.5	1008.0322415478585	1008.0322415478583	9.920317612703293E-4
