"t"	"Vehicle Id"	"Segment Id"	"Segment Length (m)"	"Distance (m)"
"0.5"	"""22fdbb3f-ccad-493a-8df7-ff4ac4c9b036"""	"""ddd763893b864fbb193be0a581e190b3#938620;2302823;939620;2302950"""	"1008.0322415478585"	"993.5196583588827"
"1.0"	"""22fdbb3f-ccad-493a-8df7-ff4ac4c9b036"""	"""ddd763893b864fbb193be0a581e190b3#938620;2302823;939620;2302950"""	"1008.0322415478585"	"979.007075169907"
"1.5"	"""22fdbb3f-ccad-493a-8df7-ff4ac4c9b036"""	"""ddd763893b864fbb193be0a581e190b3#938620;2302823;939620;2302950"""	"1008.0322415478585"	"964.4944919809312"
"2.0"	"""22fdbb3f-ccad-493a-8df7-ff4ac4c9b036"""	"""ddd763893b864fbb193be0a581e190b3#938620;2302823;939620;2302950"""	"1008.0322415478585"	"949.9819087919554"
"2.5"	"""22fdbb3f-ccad-493a-8df7-ff4ac4c9b036"""	"""ddd763893b864fbb193be0a581e190b3#938620;2302823;939620;2302950"""	"1008.0322415478585"	"935.4693256029798"
"3.0"	"""22fdbb3f-ccad-493a-8df7-ff4ac4c9b036"""	"""ddd763893b864fbb193be0a581e190b3#938620;2302823;939620;2302950"""	"1008.0322415478585"	"920.956742414004"
"3.5"	"""22fdbb3f-ccad-493a-8df7-ff4ac4c9b036"""	"""ddd763893b864fbb193be0a581e190b3#938620;2302823;939620;2302950"""	"1008.0322415478585"	"906.4441592250282"
"4.0"	"""22fdbb3f-ccad-493a-8df7-ff4ac4c9b036"""	"""ddd763893b864fbb193be0a581e190b3#938620;2302823;939620;2302950"""	"1008.0322415478585"	"891.9315760360524"
"4.5"	"""1c62aa49-8a34-4aeb-89d2-4102c3b89658"""	"""ddd763893b864fbb193be0a581e190b3#938620;2302823;939620;2302950"""	"1008.0322415478585"	"114.72404556698575"
"4.5"	"""22fdbb3f-ccad-493a-8df7-ff4ac4c9b036"""	"""ddd763893b864fbb193be0a581e190b3#938620;2302823;939620;2302950"""	"1008.0322415478585"	"877.4189928470767"
"5.0"	"""1c62aa49-8a34-4aeb-89d2-4102c3b89658"""	"""ddd763893b864fbb193be0a581e190b3#938620;2302823;939620;2302950"""	"1008.0322415478585"	"112.7849256221655"
"5.0"	"""22fdbb3f-ccad-493a-8df7-ff4ac4c9b036"""	"""ddd763893b864fbb193be0a581e190b3#938620;2302823;939620;2302950"""	"1008.0322415478585"	"862.906409658101"
"5.5"	"""1c62aa49-8a34-4aeb-89d2-4102c3b89658"""	"""ddd763893b864fbb193be0a581e190b3#938620;2302823;939620;2302950"""	"1008.0322415478585"	"110.28330567734525"
"5.5"	"""22fdbb3f-ccad-493a-8df7-ff4ac4c9b036"""	"""ddd763893b864fbb193be0a581e190b3#938620;2302823;939620;2302950"""	"1008.0322415478585"	"848.3938264691252"
"6.0"	"""1c62aa49-8a34-4aeb-89d2-4102c3b89658"""	"""ddd763893b864fbb193be0a581e190b3#938620;2302823;939620;2302950"""	"1008.0322415478585"	"107.219185732525"
"6.0"	"""22fdbb3f-ccad-493a-8df7-ff4ac4c9b036"""	"""ddd763893b864fbb193be0a581e190b3#938620;2302823;939620;2302950"""	"1008.0322415478585"	"833.8812432801494"
"6.5"	"""1c62aa49-8a34-4aeb-89d2-4102c3b89658"""	"""ddd763893b864fbb193be0a581e190b3#938620;2302823;939620;2302950"""	"1008.0322415478585"	"103.59256578770476"
"6.5"	"""22fdbb3f-ccad-493a-8df7-ff4ac4c9b036"""	"""ddd763893b864fbb193be0a581e190b3#938620;2302823;939620;2302950"""	"1008.0322415478585"	"819.3686600911738"
"7.0"	"""1c62aa49-8a34-4aeb-89d2-4102c3b89658"""	"""ddd763893b864fbb193be0a581e190b3#938620;2302823;939620;2302950"""	"1008.0322415478585"	"99.40344584288451"
"7.0"	"""22fdbb3f-ccad-493a-8df7-ff4ac4c9b036"""	"""ddd763893b864fbb193be0a581e190b3#938620;2302823;939620;2302950"""	"1008.0322415478585"	"804.856076902198"
"7.5"	"""1c62aa49-8a34-4aeb-89d2-4102c3b89658"""	"""ddd763893b864fbb193be0a581e190b3#938620;2302823;939620;2302950"""	"1008.0322415478585"	"94.65182589806426"
"7.5"	"""22fdbb3f-ccad-493a-8df7-ff4ac4c9b036"""	"""ddd763893b864fbb193be0a581e190b3#938620;2302823;939620;2302950"""	"1008.0322415478585"	"790.3434937132222"
"8.0"	"""1c62aa49-8a34-4aeb-89d2-4102c3b89658"""	"""ddd763893b864fbb193be0a581e190b3#938620;2302823;939620;2302950"""	"1008.0322415478585"	"89.33770595324401"
"8.0"	"""22fdbb3f-ccad-493a-8df7-ff4ac4c9b036"""	"""ddd763893b864fbb193be0a581e190b3#938620;2302823;939620;2302950"""	"1008.0322415478585"	"775.8309105242464"
"8.5"	"""1c62aa49-8a34-4aeb-89d2-4102c3b89658"""	"""ddd763893b864fbb193be0a581e190b3#938620;2302823;939620;2302950"""	"1008.0322415478585"	"83.46108600842376"
"8.5"	"""22fdbb3f-ccad-493a-8df7-ff4ac4c9b036"""	"""ddd763893b864fbb193be0a581e190b3#938620;2302823;939620;2302950"""	"1008.0322415478585"	"761.3183273352706"
"9.0"	"""1c62aa49-8a34-4aeb-89d2-4102c3b89658"""	"""ddd763893b864fbb193be0a581e190b3#938620;2302823;939620;2302950"""	"1008.0322415478585"	"77.02196606360349"
"9.0"	"""22fdbb3f-ccad-493a-8df7-ff4ac4c9b036"""	"""ddd763893b864fbb193be0a581e190b3#938620;2302823;939620;2302950"""	"1008.0322415478585"	"746.805744146295"
"9.5"	"""1c62aa49-8a34-4aeb-89d2-4102c3b89658"""	"""ddd763893b864fbb193be0a581e190b3#938620;2302823;939620;2302950"""	"1008.0322415478585"	"70.02034611878321"
"9.5"	"""22fdbb3f-ccad-493a-8df7-ff4ac4c9b036"""	"""ddd763893b864fbb193be0a581e190b3#938620;2302823;939620;2302950"""	"1008.0322415478585"	"732.2931609573193"
"10.0"	"""1c62aa49-8a34-4aeb-89d2-4102c3b89658"""	"""ddd763893b864fbb193be0a581e190b3#938620;2302823;939620;2302950"""	"1008.0322415478585"	"62.45622617396293"
"10.0"	"""22fdbb3f-ccad-493a-8df7-ff4ac4c9b036"""	"""ddd763893b864fbb193be0a581e190b3#938620;2302823;939620;2302950"""	"1008.0322415478585"	"717.7805777683435"
"10.5"	"""1c62aa49-8a34-4aeb-89d2-4102c3b89658"""	"""ddd763893b864fbb193be0a581e190b3#938620;2302823;939620;2302950"""	"1008.0322415478585"	"54.329606229142655"
"10.5"	"""22fdbb3f-ccad-493a-8df7-ff4ac4c9b036"""	"""ddd763893b864fbb193be0a581e190b3#938620;2302823;939620;2302950"""	"1008.0322415478585"	"703.2679945793677"
"11.0"	"""1c62aa49-8a34-4aeb-89d2-4102c3b89658"""	"""ddd763893b864fbb193be0a581e190b3#938620;2302823;939620;2302950"""	"1008.0322415478585"	"45.64048628432238"
"11.0"	"""22fdbb3f-ccad-493a-8df7-ff4ac4c9b036"""	"""ddd763893b864fbb193be0a581e190b3#938620;2302823;939620;2302950"""	"1008.0322415478585"	"688.755411390392"
"11.5"	"""1c62aa49-8a34-4aeb-89d2-4102c3b89658"""	"""ddd763893b864fbb193be0a581e190b3#938620;2302823;939620;2302950"""	"1008.0322415478585"	"36.3888663395021"
"11.5"	"""22fdbb3f-ccad-493a-8df7-ff4ac4c9b036"""	"""ddd763893b864fbb193be0a581e190b3#938620;2302823;939620;2302950"""	"1008.0322415478585"	"674.2428282014164"
"12.0"	"""1c62aa49-8a34-4aeb-89d2-4102c3b89658"""	"""ddd763893b864fbb193be0a581e190b3#938620;2302823;939620;2302950"""	"1008.0322415478585"	"26.574746394681824"
"12.0"	"""22fdbb3f-ccad-493a-8df7-ff4ac4c9b036"""	"""ddd763893b864fbb193be0a581e190b3#938620;2302823;939620;2302950"""	"1008.0322415478585"	"659.7302450124406"
"12.5"	"""1c62aa49-8a34-4aeb-89d2-4102c3b89658"""	"""ddd763893b864fbb193be0a581e190b3#938620;2302823;939620;2302950"""	"1008.0322415478585"	"13.373669710747379"
"12.5"	"""22fdbb3f-ccad-493a-8df7-ff4ac4c9b036"""	"""ddd763893b864fbb193be0a581e190b3#938620;2302823;939620;2302950"""	"1008.0322415478585"	"645.2176618234648"
"13.0"	"""1c62aa49-8a34-4aeb-89d2-4102c3b89658"""	"""ddd763893b864fbb193be0a581e190b3#938620;2302823;939620;2302950"""	"1008.0322415478585"	"13.373669710747379"
"13.0"	"""22fdbb3f-ccad-493a-8df7-ff4ac4c9b036"""	"""ddd763893b864fbb193be0a581e190b3#938620;2302823;939620;2302950"""	"1008.0322415478585"	"645.2176618234648"
"13.5"	"""1c62aa49-8a34-4aeb-89d2-4102c3b89658"""	"""ddd763893b864fbb193be0a581e190b3#938620;2302823;939620;2302950"""	"1008.0322415478585"	"13.373669710747379"
"13.5"	"""22fdbb3f-ccad-493a-8df7-ff4ac4c9b036"""	"""ddd763893b864fbb193be0a581e190b3#938620;2302823;939620;2302950"""	"1008.0322415478585"	"645.2176618234648"
